id,gender,age,experience,AD,BD,condition,purple_bot_associate_bumble,purple_bot_associate_honey,yellow_bot_associate_bumble,yellow_bot_associate_honey,eerieness_1,eerieness_2,eerieness_3,godspeed_1,godspeed_2,godspeed_3,godspeed_4,godspeed_5,mdmt_bumble_1,mdmt_bumble_2,mdmt_bumble_3,mdmt_bumble_4,mdmt_bumble_5,mdmt_bumble_6,mdmt_bumble_7,mdmt_bumble_8,mdmt_bumble,reliability_bumble,capability_bumble,mdmt_bumble_checkbox_1,mdmt_bumble_checkbox_2,mdmt_bumble_checkbox_3,mdmt_bumble_checkbox_4,mdmt_bumble_checkbox_5,mdmt_bumble_checkbox_6,mdmt_bumble_checkbox_7,mdmt_bumble_checkbox_8,mdmt_honey_1,mdmt_honey_2,mdmt_honey_3,mdmt_honey_4,mdmt_honey_5,mdmt_honey_6,mdmt_honey_7,mdmt_honey_8,mdmt_honey,reliability_honey,capability_honey,mdmt_honey_checkbox_1,mdmt_honey_checkbox_2,mdmt_honey_checkbox_3,mdmt_honey_checkbox_4,mdmt_honey_checkbox_5,mdmt_honey_checkbox_6,mdmt_honey_checkbox_7,mdmt_honey_checkbox_8,mdmt_purple_1,mdmt_purple_2,mdmt_purple_3,mdmt_purple_4,mdmt_purple_5,mdmt_purple_6,mdmt_purple_7,mdmt_purple_8,mdmt_purple,mdmt_purple_checkbox_1,mdmt_purple_checkbox_2,mdmt_purple_checkbox_3,mdmt_purple_checkbox_4,mdmt_purple_checkbox_5,mdmt_purple_checkbox_6,mdmt_purple_checkbox_7,mdmt_purple_checkbox_8,mdmt_yellow_1,mdmt_yellow_2,mdmt_yellow_3,mdmt_yellow_4,mdmt_yellow_5,mdmt_yellow_6,mdmt_yellow_7,mdmt_yellow_8,mdmt_yellow,mdmt_yellow_checkbox_1,mdmt_yellow_checkbox_2,mdmt_yellow_checkbox_3,mdmt_yellow_checkbox_4,mdmt_yellow_checkbox_5,mdmt_yellow_checkbox_6,mdmt_yellow_checkbox_7,mdmt_yellow_checkbox_8,final_check_question,BI Trust Diff BP,BI Trust Diff HY,Reliability_ID_Diff,Capability_ID_Diff,Trust_ID_Diff
AZ5USSNKZI3Y1:3RRCEFRB7NQH14FV92R9RF1NBC94BA,female,50,1,0,0,12,66,70,96,33,50,36,71,20,42,40,28,4,53,29,95,17,19,30,19,16,34.75,48.5,21,,,,,,,,,23,39,97,44,82,22,19,31,44.625,50.75,38.5,,,,,,,,,47,41,98,13,98,27,49,26,36.5,,,,,,,,,25,11,97,13,26,53,25,93,42.875,,,,,,,,,3,-1.75,1.75,2.25,17.5,9.875
AVZB267DUK746:32M8BPYGAU070SMLADLRMR23WF7GI3,male,61,6,1,1,3,100,0,0,100,72,88,40,69,34,83,89,98,90,84,74,88,82,86,88,90,85.25,84,86.5,,,,,,,,,75,71,75,72,81,69,69,63,71.875,73.25,70.5,,,,,,,,,61,80,72,97,77,84,81,63,62,,,,,,,,,84,80,86,49,46,90,89,45,71.125,,,,,,,,,3,23.25,0.75,-10.75,-16,-13.375
AU0Q98WJMJQQL:3P1L2B7AD23XI6BPJZVCJG3X3HSLOW,male,38,5,1,1,15,100,0,0,100,92,98,98,99,47,97,0,98,100,98,99,100,97,97,96,97,98,99.25,96.75,,,,,,,,,99,99,97,98,,97,98,99,98.1428571428571,98.25,98,,,,,N/A,,,,97,96,97,97,,96,96,100,98.5,,,,,N/A,,,,98,97,98,97,,98,99,98,97.8571428571429,,,,,N/A,,,,3,-0.5,0.285714285714278,-1,1.25,0.142857142857139
ASXNA04AP6W4U:323Q6SJS8JU1QXF6TBXO4U1CUZSHFZ,female,37,4,0,1,9,69,84,61,84,72,53,86,61,81,72,56,96,69,55,46,81,64,81,64,32,61.5,62.75,60.25,,,,,,,,,73,85,53,69,69,84,58,85,72,70,74,,,,,,,,,77,85,84,62,45,85,59,67,72,,,,,,,,,81,60,52,85,53,71,71,52,65.625,,,,,,,,,3,-10.5,6.375,7.25,13.75,10.5
AQV468FB908WI:3TPZPLC3M1QYN2X1ST4RCUE6D0Y3PI,female,35,2,1,0,2,100,0,0,100,100,74,90,74,0,50,24,51,58,70,57,58,56,56,73,70,62.25,60.75,63.75,,,,,,,,,94,87,85,83,99,87,83,85,87.875,87.25,88.5,,,,,,,,,98,98,55,86,83,87,82,86,92,,,,,,,,,71,56,30,56,61,69,70,71,60.5,,,,,,,,,3,-29.75,27.375,26.5,24.75,25.625
AQN3WMCEA96DQ:3VHP9MDGROYA9P4Q7JJNT34WH4OFCJ,male,39,3,0,1,13,100,0,0,100,100,76,69,0,0,30,20,0,8,12,12,13,13,14,15,7,11.75,11.25,12.25,,,,,,,,,72,72,69,71,71,69,74,77,71.875,71,72.75,,,,,,,,,0,53,9,15,2,12,1,13,6.5,,,,,,,,,56,88,41,99,50,91,55,73,69.125,,,,,,,,,3,5.25,2.75,59.75,60.5,60.125
AQ1PTX596CKUH:3DEL4X4EL7Z4CEWG357YW1WMPO0YXI,male,35,3,1,1,11,66,31,31,81,99,97,1,3,3,3,1,3,10,27,12,12,,12,11,,14,15.25,11.5,,,,,N/A,,,N/A,,27,,11,,10,13,11,14.4,19,11.3333333333333,N/A,,N/A,,N/A,,,,11,12,,26,13,,14,,11,,,N/A,,,N/A,,N/A,,,11,,,,12,12,11.6666666666667,N/A,N/A,,N/A,N/A,N/A,,,3,3,2.73333333333333,3.75,-0.166666666666666,0.4
AOAZMLP27GD81:3VW6495TLKETCJMQ81T0FF3VRUUYYO,male,40,2,1,0,14,100,0,0,100,40,37,3,0,0,49,0,0,83,71,84,63,70,72,81,86,76.25,75.25,77.25,,,,,,,,,70,56,73,50,68,59,74,70,65,62.25,67.75,,,,,,,,,78,77,77,64,73,67,80,77,77.5,,,,,,,,,69,56,70,45,70,57,78,63,63.5,,,,,,,,,3,-1.25,1.5,-13,-9.5,-11.25
AKZD89B2WLSX7:3IX2EGZR7CXUKTF58603XWVAAF7RJ9,female,50,1,1,0,2,100,0,0,100,0,0,0,73,2,21,61,49,87,86,98,97,97,90,96,86,92.125,92,92.25,,,,,,,,,67,62,58,69,59,68,65,68,64.5,64,65,,,,,,,,,98,85,98,99,97,86,84,88,93,,,,,,,,,71,58,56,72,70,57,71,71,65.75,,,,,,,,,3,-0.875,-1.25,-28,-27.25,-27.625
AKVDK30EEV08C:33LKR6A5KFY05RCTM6ZSTB064J51TT,female,62,1,0,1,9,100,0,0,100,24,49,0,0,0,0,0,64,54,61,30,59,0,58,29,0,36.375,51,21.75,,,,,,,,,24,40,1,36,0,40,28,0,21.125,25.25,17,,,,,,,,,49,62,0,58,0,64,32,0,24.5,,,,,,,,,38,44,0,40,0,27,42,0,23.875,,,,,,,,,3,11.875,-2.75,-25.75,-4.75,-15.25
AK77EA1UZ8KJG:3A9AA95ATX011HK56CSKRRCQSCIP5K,male,23,4,1,0,2,69,79,47,84,38,68,88,25,20,43,43,40,63,69,17,79,74,75,82,69,66,57,75,,,,,,,,,81,76,61,44,42,13,55,68,55,65.5,44.5,,,,,,,,,55,71,82,78,13,29,69,64,59.5,,,,,,,,,65,74,55,72,31,27,89,59,59,,,,,,,,,3,6.5,-4,8.5,-30.5,-11
AIQM86IRETAJN:3QFUFYSY9ZT7ELRBE4D5A5S8QA14FS,female,34,1,0,1,9,100,0,0,100,47,74,100,21,0,47,22,24,70,40,57,55,55,87,72,27,57.875,55.5,60.25,,,,,,,,,11,1,25,2,1,10,0,28,9.75,9.75,9.75,,,,,,,,,71,72,27,85,41,87,71,13,42,,,,,,,,,0,12,27,0,0,11,12,41,12.875,,,,,,,,,3,15.875,-3.125,-45.75,-50.5,-48.125
AILDNTO2TWB4A:3ZPPDN2SLWAG5DXR0OPQ9VIO02JE91,male,30,2,1,0,6,100,0,0,100,24,49,35,62,0,38,11,0,82,83,72,81,79,80,83,80,80,79.5,80.5,,,,,,,,,56,56,42,56,42,57,56,55,52.5,52.5,52.5,,,,,,,,,85,84,72,84,84,85,71,83,84,,,,,,,,,57,56,41,56,41,55,57,57,52.5,,,,,,,,,3,-4,0,-27,-28,-27.5
AG9LMLEPXP2YC:3M1CVSFP61JJ7ZX11LYQZ7IMO4SQA4,male,26,3,1,0,6,68,66,50,49,43,47,70,39,18,71,20,60,58,60,60,61,38,27,53,52,51.125,59.75,42.5,,,,,,,,,55,41,54,47,59,47,43,41,48.375,49.25,47.5,,,,,,,,,64,64,64,57,40,46,50,58,61,,,,,,,,,43,65,49,72,45,58,51,61,55.5,,,,,,,,,3,-9.875,-7.125,-10.5,5,-2.75
AFIK3VBMMX6G6:3ZSANO2JCGLQG6TM459N888E4YBFSX,male,36,3,1,0,2,0,66,100,0,23,26,13,49,12,13,27,25,82,84,69,84,90,81,96,78,83,79.75,86.25,,,,,,,,,85,83,73,74,83,83,94,74,81.125,78.75,83.5,,,,,,,,,86,82,72,66,79,83,82,79,82.5,,,,,,,,,79,82,63,71,76,87,95,71,78,,,,,,,,,3,0.5,3.125,-1,-2.75,-1.875
AEKP72I9TAOT:3NQL1CS15SMC8PRL3Q6G8GZ19DSYVF,male,37,3,0,1,9,85,53,78,52,64,71,29,40,15,3,0,10,29,36,20,45,33,21,32,55,33.875,32.5,35.25,,,,,,,,,29,34,20,65,60,50,36,42,42,37,47,,,,,,,,,13,12,25,11,19,16,15,51,32,,,,,,,,,10,20,46,10,22,38,12,39,24.625,,,,,,,,,3,1.875,17.375,4.5,11.75,8.125
ABQ4JY52NCREZ:3VD82FOHKR24F2HJ6M2DGXDA96SOCT,male,38,3,1,1,15,21,82,83,29,70,60,21,14,1,3,4,9,47,48,61,47,49,47,56,48,50.375,50.75,50,,,,,,,,,30,29,41,32,30,30,29,32,31.625,33,30.25,,,,,,,,,33,32,36,25,26,28,30,33,33,,,,,,,,,42,46,71,42,41,41,71,72,53.25,,,,,,,,,3,17.375,-21.625,-17.75,-19.75,-18.75
AB8KNX3LINNX4:3TDXMTX3CC853ZXFY0C5A0PE2TZ6I6,female,27,1,0,0,8,100,0,0,99,48,47,0,46,1,47,1,1,55,100,70,26,25,70,39,99,60.5,62.75,58.25,,,,,,,,,11,70,99,11,86,85,99,70,66.375,47.75,85,,,,,,,,,55,38,25,40,56,40,40,56,55.5,,,,,,,,,70,27,98,40,41,56,70,99,62.625,,,,,,,,,3,5,3.75,-15,26.75,5.875
A990YVIY66UNS:3Z2R0DQ0JIS55TCSFFABZ8AATG5E28,female,45,7,0,1,1,40,53,43,31,53,47,64,51,18,28,46,55,45,51,66,54,51,72,,51,55.7142857142857,54,58,,,,,,,N/A,,66,,68,,62,48,44,42,55,67,49,,N/A,,N/A,,,,,53,50,60,42,55,53,45,59,56,,,,,,,,,55,59,,48,45,48,63,45,51.8571428571429,,,N/A,,,,,,3,-0.285714285714285,3.14285714285715,13,-9,-0.714285714285715
A6VUKG6YF3M54:3PEIJLRY6U70N91GO4PAB4B6E8VWXW,male,63,5,0,1,5,61,72,99,93,77,79,95,38,1,21,9,36,46,37,34,38,40,26,45,42,38.5,38.75,38.25,,,,,,,,,48,42,49,38,39,50,41,28,41.875,44.25,39.5,,,,,,,,,40,34,44,49,40,54,44,58,49,,,,,,,,,41,40,50,43,44,46,46,29,42.375,,,,,,,,,3,-10.5,-0.5,5.5,1.25,3.375
A5GBRP3CRKJSF:3LUY3GC630EGOLYOU57HPBQMJIDP7Z,male,28,6,1,0,6,77,91,75,89,65,83,69,81,68,85,57,63,69,88,78,71,60,85,73,82,75.75,76.5,75,,,,,,,,,77,82,72,41,88,69,55,81,70.625,68,73.25,,,,,,,,,86,79,78,86,84,77,85,76,81,,,,,,,,,82,70,87,82,84,64,79,63,76.375,,,,,,,,,3,-5.25,-5.75,-8.5,-1.75,-5.125
A5DTG37NL4GAG:3DEL4X4EL7Z4CEWG357YW1WMO01YX6,female,53,6,0,1,9,93,91,78,90,81,91,68,75,62,57,62,67,72,49,82,52,77,82,54,56,65.5,63.75,67.25,,,,,,,,,79,57,54,79,57,85,49,70,66.25,67.25,65.25,,,,,,,,,64,82,91,74,70,61,68,83,73.5,,,,,,,,,69,60,40,74,47,54,78,78,62.5,,,,,,,,,3,-8,3.75,3.5,-2,0.75
A3S0AE3XOFNXDJ:3DIP6YHAPD6GR8EHVWJC9ZNDG3N8E6,female,33,4,0,0,12,18,72,79,20,52,59,42,65,56,61,32,59,37,43,60,53,53,48,55,55,50.5,48.25,52.75,,,,,,,,,49,56,39,59,57,46,34,66,50.75,50.75,50.75,,,,,,,,,41,44,54,56,47,52,64,49,45,,,,,,,,,54,65,40,67,52,58,47,57,55,,,,,,,,,3,5.5,-4.25,2.5,-2,0.25
A3RLYKLRIXDM6Y:33CID5710578WHI301BKVD5M8R63LV,male,39,7,0,1,13,67,47,67,48,64,47,47,37,11,34,54,41,58,45,56,43,45,70,64,54,54.375,50.5,58.25,,,,,,,,,59,39,61,67,44,56,,51,53.8571428571429,56.5,50.3333333333333,,,,,,,N/A,,55,55,49,41,67,70,42,55,55,,,,,,,,,54,55,52,56,41,39,59,55,51.375,,,,,,,,,3,-0.625,2.48214285714285,6,-7.91666666666666,-0.517857142857146
A3RJK6ZDXHN0IG:3X66WABAJXWSAP42PAE4IL0EDXA3GQ,female,28,7,0,1,9,98,86,95,97,49,49,99,99,49,48,3,54,87,84,85,84,85,88,85,84,85.25,85,85.5,,,,,,,,,90,88,89,94,92,90,90,75,88.5,90.25,86.75,,,,,,,,,98,99,99,98,98,99,99,99,98.5,,,,,,,,,98,97,97,99,99,97,98,57,92.75,,,,,,,,,3,-13.25,-4.25,5.25,1.25,3.25
A3R168GJZRF7KU:3S96KQ6I9NIUXMS52ZJNUD1FU47DT7,female,28,7,1,1,11,95,97,97,94,49,50,95,94,23,96,16,94,89,88,86,89,88,91,87,88,88.25,88,88.5,,,,,,,,,91,91,91,90,89,88,87,89,89.5,90.75,88.25,,,,,,,,,97,92,91,93,95,91,92,94,95.5,,,,,,,,,95,96,95,94,95,95,96,96,95.25,,,,,,,,,3,-7.25,-5.75,2.75,-0.25,1.25
A3QQD4LWY6RWGA:32SCWG5HIIIXKLKJBV2PJXQQO7TP60,male,32,2,0,0,4,100,0,0,100,47,75,74,75,50,35,0,100,55,58,45,58,,86,40,,57,54,63,,,,,N/A,,,N/A,47,48,50,85,70,48,86,,62,57.5,68,,,,,,,,N/A,49,63,34,48,,58,62,,49,,,,,N/A,,,N/A,71,38,47,68,,81,43,,58,,,,,N/A,,,N/A,3,8,4,3.5,5,5
A3O7X46E3REM7I:34X6J5FLPUCU8S05VRB3S6L5EQ6JQV,male,33,3,0,1,1,99,0,1,100,25,49,0,24,1,0,1,22,100,85,98,94,100,86,97,98,94.75,94.25,95.25,,,,,,,,,95,99,96,97,97,98,97,98,97.125,96.75,97.5,,,,,,,,,98,85,100,97,100,98,98,97,97.5,,,,,,,,,86,88,98,86,100,87,97,99,92.625,,,,,,,,,3,-2.75,4.5,2.5,2.25,2.375
A3N501UIQ965BA:3O6CYIULEEF8657LJZENRXC2JAKWUD,male,24,3,0,1,5,34,55,29,71,37,64,41,29,58,39,77,42,63,68,36,43,31,30,56,68,49.375,52.5,46.25,,,,,,,,,68,34,68,69,35,67,41,44,53.25,59.75,46.75,,,,,,,,,50,32,60,64,39,68,39,61,55.5,,,,,,,,,68,42,70,54,76,48,79,35,59,,,,,,,,,3,-6.125,-5.75,7.25,0.5,3.875
A3KP8KFGG6734Q:3YMU66OBIOM74XB14V36MF1OW2SGHA,female,56,2,0,0,4,100,0,0,100,47,48,47,51,23,7,4,10,76,88,83,77,76,81,77,59,77.125,81,73.25,,,,,,,,,77,78,78,74,47,75,76,47,69,76.75,61.25,,,,,,,,,77,73,71,76,55,92,73,73,75,,,,,,,,,85,72,69,82,27,70,60,71,67,,,,,,,,,3,2.125,2,-4.25,-12,-8.125
A3KF6O09H04SP7:32SCWG5HIIIXKLKJBV2PJXQQNRZP69,male,36,3,1,1,11,99,0,0,99,26,48,3,19,3,46,26,4,89,92,83,93,78,90,89,90,88,89.25,86.75,,,,,,,,,77,79,85,78,73,79,86,75,79,79.75,78.25,,,,,,,,,75,87,81,84,73,91,86,89,82,,,,,,,,,74,82,88,81,75,86,90,68,80.5,,,,,,,,,3,6,-1.5,-9.5,-8.5,-9
A3KC385CZNYEG5:3VSOLARPKCNDVFHUB48UQ4ER9KF39Z,na,23,3,0,0,4,100,0,0,100,50,48,1,22,23,0,0,12,56,56,84,56,,54,77,,63.8333333333333,63,65.5,,,,,N/A,,,N/A,54,56,73,55,,54,56,,58,59.5,55,,,,,N/A,,,N/A,57,57,80,59,,57,81,,57,,,,,N/A,,,N/A,54,55,83,55,,55,72,,62.3333333333333,,,,,N/A,,,N/A,3,6.83333333333334,-4.33333333333334,-3.5,-10.5,-5.83333333333334
A3K0YRCSOMX845:34HJIJKLP6AWAID1EJI9SRVUDLV4VJ,male,56,3,1,0,10,67,84,72,83,55,63,75,70,64,82,65,78,71,98,70,67,57,61,71,93,73.5,76.5,70.5,,,,,,,,,66,55,60,69,77,59,79,68,66.625,62.5,70.75,,,,,,,,,87,67,59,79,76,89,57,79,83,,,,,,,,,77,76,68,84,64,63,87,88,75.875,,,,,,,,,3,-9.5,-9.25,-14,0.25,-6.875
A3HZFB2JLF3JMY:3JZQSN0I3RONQ1KV95F6JUPBGNFGFC,male,32,6,0,0,0,44,76,64,50,80,49,81,56,33,55,37,67,72,53,43,65,49,63,54,54,56.625,58.25,55,,,,,,,,,54,61,41,48,33,45,46,62,48.75,51,46.5,,,,,,,,,69,58,44,50,45,48,58,43,56,,,,,,,,,37,36,52,43,58,57,59,62,50.5,,,,,,,,,3,0.625,-1.75,-7.25,-8.5,-7.875
A3HV4K6ZCL0LA4:3WZ36BJEV4U1IPULO3SHZNDFRBQBTD,male,28,7,1,1,3,94,96,72,97,89,74,96,96,57,96,79,97,82,91,95,68,81,97,97,85,87,84,90,,,,,,,,,84,97,95,99,95,96,70,97,91.625,93.75,89.5,,,,,,,,,69,97,97,95,73,95,97,97,83,,,,,,,,,63,80,96,96,95,96,80,93,87.375,,,,,,,,,3,4,4.25,9.75,-0.5,4.625
A3FR3U01EFKGX2:35L9RVQFCPWQ9FCWO0SNQU2F4J8HUT,male,38,3,0,0,4,91,75,75,93,88,72,58,72,54,91,71,82,71,89,91,58,74,73,83,95,79.25,77.25,81.25,,,,,,,,,77,58,78,87,88,74,60,92,76.75,75,78.5,,,,,,,,,90,65,88,87,72,76,78,91,90.5,,,,,,,,,87,94,83,69,81,80,58,67,77.375,,,,,,,,,3,-11.25,-0.625,-2.25,-2.75,-2.5
A3F3YP2Q7D4JE5:37WLF8U1WQ4W9UN3Y3XHNG4RUXO6KH,male,46,3,1,0,10,59,77,62,79,65,76,94,47,68,68,81,33,47,75,39,72,78,42,62,90,63.125,58.25,68,,,,,,,,,68,19,62,38,31,32,82,62,49.25,46.75,51.75,,,,,,,,,42,85,68,77,78,82,55,43,42.5,,,,,,,,,79,64,31,65,39,37,15,70,50,,,,,,,,,3,20.625,-0.75,-11.5,-16.25,-13.875
A3EJKDC48PG8QN:36PW28KO40AUAW7WSU3Q5QT86JIEAV,male,50,3,0,1,1,100,0,0,100,47,27,97,76,12,97,50,97,98,96,61,96,97,95,96,97,92,87.75,96.25,,,,,,,,,83,92,70,85,73,83,83,78,80.875,82.5,79.25,,,,,,,,,96,95,80,96,79,98,98,93,94.5,,,,,,,,,98,96,70,96,62,94,93,65,84.25,,,,,,,,,3,-2.5,-3.375,-5.25,-17,-11.125
A3CB76BLS1D9KF:3R5F3LQFV3YHNVSTY0MLRVEVIQ0OZI,male,28,5,1,1,11,80,86,52,81,76,96,75,52,75,74,49,77,59,67,54,56,67,77,77,64,65.125,59,71.25,,,,,,,,,87,69,62,68,89,87,73,67,75.25,71.5,79,,,,,,,,,70,76,72,71,57,86,81,83,76.5,,,,,,,,,69,86,97,71,72,66,74,97,79,,,,,,,,,3,-11.375,-3.75,12.5,7.75,10.125
A38QGJJOZANQ4B:3VJ40NV2QJ1L1JJUS8X357DEXUEOT2,male,34,2,1,1,11,0,100,100,0,77,50,8,84,39,75,23,34,71,81,22,31,38,55,71,57,53.25,51.25,55.25,,,,,,,,,92,76,84,85,94,80,84,79,84.25,84.25,84.25,,,,,,,,,97,92,49,91,89,90,81,96,96.5,,,,,,,,,60,81,10,73,52,40,34,40,48.75,,,,,,,,,3,-43.25,35.5,33,29,31
A37GOGQDYDT44K:3ND9UOO81LG5NFKRALMM0AGJ70EWL5,female,31,1,0,0,12,100,0,0,100,48,49,0,22,0,0,0,45,97,96,,100,,99,,94,97.2,97.6666666666667,96.5,,,N/A,,N/A,,N/A,,,90,,92,,99,,85,91.5,91,92,N/A,,N/A,,N/A,,N/A,,96,96,,96,,98,71,100,98,,,N/A,,N/A,,,,,82,,51,,56,,51,60,N/A,,N/A,,N/A,,N/A,,3,-0.799999999999997,31.5,-6.66666666666667,-4.5,-5.7
A368GZDFSP6FLO:3RGU30DZTBM3ND2D3Y4MBX104S8JMD,female,31,3,1,0,2,46,14,23,70,59,41,71,71,45,66,50,73,57,44,66,36,,41,77,55,53.7142857142857,50.75,57.6666666666667,,,,,N/A,,,,48,30,49,66,21,47,80,78,52.375,48.25,56.5,,,,,,,,,56,60,32,39,62,69,38,46,51,,,,,,,,,36,46,26,75,60,39,26,40,43.5,,,,,,,,,3,2.71428571428572,8.875,-2.5,-1.16666666666666,-1.33928571428572
A35O3H71CM4LVZ:30ZX6P7VF99DG9YKTGL2WON2YKS2J0,male,39,3,1,1,15,45,0,8,47,49,51,48,0,8,14,10,8,39,28,39,38,8,25,39,29,30.625,36,25.25,,,,,,,,,40,43,40,29,8,9,44,14,28.375,38,18.75,,,,,,,,,44,43,44,44,26,25,45,23,33.5,,,,,,,,,8,10,48,43,6,40,37,40,29,,,,,,,,,3,-2.875,-0.625,2,-6.5,-2.25
A30Y3H3UJ9QKWV:31UV0MXWNRQ9KVX1TH20IUBE5J3I5M,male,25,3,1,0,14,90,9,18,90,74,66,79,12,5,13,3,8,58,56,48,59,56,61,50,54,55.25,55.25,55.25,,,,,,,,,51,49,46,48,50,50,50,50,49.25,48.5,50,,,,,,,,,49,64,41,62,60,63,47,49,49,,,,,,,,,51,57,44,51,51,56,51,50,51.375,,,,,,,,,3,6.25,-2.125,-6.75,-5.25,-6
A30OGUUF0L3NLZ:3YGXWBAF71V0B971N2N42Z75TX94CH,male,28,5,1,0,14,74,90,61,92,75,88,76,83,84,54,88,66,89,66,92,58,76,61,77,90,76.125,76.25,76,,,,,,,,,68,93,73,85,57,60,93,90,77.375,79.75,75,,,,,,,,,73,70,89,96,61,91,95,73,73,,,,,,,,,73,87,50,90,89,83,70,67,76.125,,,,,,,,,3,3.125,1.25,3.5,-1,1.25
A30HUZHJBOX1LK:3ZY8KE4ISKH3ZN0ZCGPMVUWZ9HLVQ8,male,52,3,1,1,7,100,0,0,100,17,47,1,21,16,21,24,72,25,21,27,12,28,12,39,25,23.625,21.25,26,,,,,,,,,75,58,65,57,70,55,55,51,60.75,63.75,57.75,,,,,,,,,27,13,44,28,14,26,42,57,42,,,,,,,,,46,63,72,47,40,44,75,41,53.5,,,,,,,,,3,-18.375,7.25,42.5,31.75,37.125
A2YKTNPYFTACIN:33NF62TLXKG8XP2AIMR6WK9WFNDJK8,male,29,3,0,0,4,100,0,0,100,74,48,75,64,84,55,81,66,55,70,51,74,41,56,63,74,60.5,62.5,58.5,,,,,,,,,79,50,42,68,52,46,62,71,58.75,59.75,57.75,,,,,,,,,46,69,46,45,70,72,64,42,44,,,,,,,,,64,40,45,51,78,69,65,73,60.625,,,,,,,,,3,16.5,-1.875,-2.75,-0.75,-1.75
A2Y7RA3JIQXV6M:34S9DKFK743Z0KIC1ZKPYZ5OMN0YNX,female,29,2,1,0,10,62,48,49,65,27,50,77,74,83,49,75,73,71,55,67,67,68,83,80,81,71.5,65,78,,,,,,,,,62,54,73,58,84,77,57,62,65.875,61.75,70,,,,,,,,,65,84,42,60,71,58,81,73,69,,,,,,,,,71,84,63,80,70,55,71,42,67,,,,,,,,,3,2.5,-1.125,-3.25,-8,-5.625
A2X295K4FFKJ8I:31HQ4X3T3TOCGY3IQGCL3LDY07ISLP,female,28,5,0,0,0,52,36,56,43,67,49,74,46,73,49,74,51,59,43,63,42,71,69,57,36,55,51.75,58.25,,,,,,,,,43,58,63,59,66,49,53,40,53.875,55.75,52,,,,,,,,,57,42,59,58,52,58,42,57,57,,,,,,,,,66,52,38,50,45,38,59,57,50.625,,,,,,,,,3,-2,3.25,4,-6.25,-1.125
A2WJMGV0HKQG3Z:3Z4AIRP3C7R7M8LDRG0PIELCIVN1X3,female,67,3,0,1,13,100,2,3,97,3,5,48,68,81,93,95,89,97,97,,96,95,94,94,93,95.1428571428571,96.6666666666667,94,,,N/A,,,,,,96,95,,93,94,97,95,98,95.4285714285714,94.6666666666667,96,,,N/A,,,,,,98,98,,96,97,96,97,90,94,,,N/A,,,,,,99,98,,97,98,97,,83,95.3333333333333,,,N/A,,,,N/A,,3,1.14285714285714,0.095238095238102,-2,2,0.285714285714292
A2WC8DV7EB0FOY:3WEV0KO0ON6TIMFQDZEXK85TSLTDSI,male,51,5,0,1,13,100,93,95,85,78,67,80,98,91,90,96,92,93,94,96,92,90,96,96,97,94.25,93.75,94.75,,,,,,,,,98,97,97,98,92,96,92,94,95.5,97.5,93.5,,,,,,,,,89,92,89,93,91,94,90,92,90.5,,,,,,,,,94,98,96,98,80,84,97,90,92.125,,,,,,,,,3,3.75,3.375,3.75,-1.25,1.25
A2VO8C41JJIQY9:3DPNQGW4LMTBVSY0DBA1GZFVXCL46E,male,31,4,1,1,3,100,0,0,100,75,50,77,0,0,21,0,0,41,27,88,27,34,28,32,36,39.125,45.75,32.5,,,,,,,,,79,63,91,41,87,87,86,78,76.5,68.5,84.5,,,,,,,,,37,30,78,59,55,38,38,10,23.5,,,,,,,,,77,76,84,94,74,100,55,85,80.625,,,,,,,,,3,15.625,-4.125,22.75,52,37.375
A2VN59CZEQ7P0R:3X0H8UUIT22SRSFHUUJNCWUEYDZWSX,male,40,1,1,0,10,100,0,0,100,24,20,2,37,12,47,22,73,99,99,99,,,100,100,99,99.3333333333333,99,99.6666666666667,,,,N/A,N/A,,,,99,100,100,,,100,100,100,99.8333333333333,99.6666666666667,100,,,,N/A,N/A,,,,99,99,98,,,99,99,100,99.5,,,,N/A,N/A,,,,100,100,100,,,100,100,99,99.8333333333333,,,,N/A,N/A,,,,3,-0.166666666666671,0,0.666666666666671,0.333333333333329,0.5
A2VB8KX3XUA6WU:320DUZ38G803V36RSV6RYSH39UWGJF,male,52,2,0,0,8,100,13,100,13,21,0,0,0,0,21,0,21,88,100,100,100,,,100,100,98,97,100,,,,,N/A,N/A,,,100,100,100,100,,,100,100,100,100,100,,,,,N/A,N/A,,,87,100,100,100,,,100,100,93.5,,,,,N/A,N/A,,,100,100,100,100,,,100,100,100,,,,,N/A,N/A,,,3,4.5,0,3,0,2
A2RS9H7YA510V4:30BXRYBRP5B31J11J07O8INCPZJHWS,female,29,5,0,1,5,22,40,42,34,25,14,13,89,61,63,86,85,85,89,35,79,92,91,60,80,76.375,72,80.75,,,,,,,,,83,94,54,91,78,43,79,89,76.375,80.5,72.25,,,,,,,,,42,87,56,68,77,94,80,80,61,,,,,,,,,48,88,90,89,73,70,81,73,76.5,,,,,,,,,3,15.375,-0.125,8.5,-8.5,0
A2R7YCDDDYIFE:3TMSXRD2X7ESX8GNHB43GV758BZW1M,female,30,4,0,0,12,76,47,50,76,25,33,43,11,18,11,23,21,70,56,66,51,55,60,51,44,56.625,60.75,52.5,,,,,,,,,68,68,66,51,64,66,72,47,62.75,63.25,62.25,,,,,,,,,63,58,66,48,55,59,63,46,54.5,,,,,,,,,35,74,63,61,61,38,47,52,53.875,,,,,,,,,3,2.125,8.875,2.5,9.75,6.125
A2LVCS009DMEAT:3TYCR1GOTDX9HAPWL86TZEA1O1PZL3,female,38,2,0,1,1,1,100,100,0,20,20,53,11,3,2,0,9,88,67,68,79,65,79,89,80,76.875,75.5,78.25,,,,,,,,,74,87,75,81,62,87,83,76,78.125,79.25,77,,,,,,,,,93,91,63,86,52,85,89,71,82,,,,,,,,,92,96,49,84,39,78,92,87,77.125,,,,,,,,,3,-5.125,1,3.75,-1.25,1.25
A2LQKVH2J0EV9Q:3YMU66OBIOM74XB14V36MF1OVESHGY,male,29,3,1,0,14,100,100,0,100,0,50,33,67,39,53,43,40,89,89,82,83,82,87,82,,84.8571428571429,85.75,83.6666666666667,,,,,,,,N/A,67,84,80,76,68,75,77,,75.2857142857143,76.75,73.3333333333333,,,,,,,,N/A,86,94,90,85,87,89,92,,86,,,,,,,,N/A,70,86,66,66,69,81,84,,74.5714285714286,,,,,,,,N/A,3,-1.14285714285714,0.714285714285722,-9,-10.3333333333333,-9.57142857142857
A2JDYN6QM8M5UN:3C6FJU71TR7CVA2LY0WBCUXIV6JYUQ,male,26,1,0,0,4,100,0,0,100,49,48,31,2,0,0,3,62,71,71,72,56,70,71,72,68,68.875,67.5,70.25,,,,,,,,,99,100,88,92,89,96,98,72,91.75,94.75,88.75,,,,,,,,,56,70,70,70,73,71,70,72,64,,,,,,,,,95,98,95,95,97,97,93,92,95.25,,,,,,,,,3,4.875,-3.5,27.25,18.5,22.875
A2I6ZALE49CVSC:3BGYGHDBBYYDAD0CMVFAX71LXS022A,male,28,3,1,0,10,91,9,83,5,70,67,82,36,13,51,17,22,47,66,46,50,50,26,71,28,48,52.25,43.75,,,,,,,,,61,70,53,21,46,57,31,27,45.75,51.25,40.25,,,,,,,,,67,21,39,27,47,23,79,42,54.5,,,,,,,,,48,26,54,20,34,30,45,52,38.625,,,,,,,,,3,-6.5,7.125,-1,-3.5,-2.25
A2HN720GCQ6YW6:3MYYFCXHJ4LDSLN6POJNSQSKRP14GR,male,52,5,0,0,12,10,34,32,43,27,40,58,34,38,29,57,42,37,30,54,43,50,50,38,32,41.75,41,42.5,,,,,,,,,52,17,22,70,77,85,51,42,52,40.25,63.75,,,,,,,,,31,32,40,35,42,39,35,36,33.5,,,,,,,,,32,54,37,43,44,29,38,45,40.25,,,,,,,,,3,8.25,11.75,-0.75,21.25,10.25
A2D9ZZDR43R34Q:3JJVG1YBECBZXNJVN7AJW771BG9B57,male,27,5,1,0,10,66,15,86,31,76,45,74,77,51,23,73,74,28,70,57,87,42,43,57,79,57.875,60.5,55.25,,,,,,,,,40,41,84,57,56,71,70,69,61,55.5,66.5,,,,,,,,,85,84,41,70,69,56,56,42,63.5,,,,,,,,,42,82,55,40,70,84,43,71,60.875,,,,,,,,,3,-5.625,0.125,-5,11.25,3.125
A2BJGX6XXE49JG:3CFJTT4SXU4O7ZBKHAHXGEPAXCO7IR,male,25,1,1,1,7,100,0,0,100,49,49,49,47,0,100,0,0,100,100,47,100,100,100,100,100,93.375,86.75,100,,,,,,,,,100,100,48,100,100,100,100,100,93.5,87,100,,,,,,,,,100,100,47,100,100,100,100,100,100,,,,,,,,,100,100,48,100,100,100,100,100,93.5,,,,,,,,,3,-6.625,0,0.25,0,0.125
A28QZ8YDI84V0R:3DIP6YHAPD6GR8EHVWJC9ZNDFDA8EC,female,30,3,0,0,8,96,10,97,56,81,59,48,89,70,59,10,9,81,73,68,84,88,85,74,81,79.25,76.5,82,,,,,,,,,89,72,75,82,83,87,89,67,80.5,79.5,81.5,,,,,,,,,80,75,78,88,66,90,90,79,79.5,,,,,,,,,63,69,83,78,86,75,87,75,77,,,,,,,,,3,-0.25,3.5,3,-0.5,1.25
A28D6AWNCMLKFB:3RU7GD8VPP727JIGI85SK2MI5EFSPD,female,59,3,1,1,7,100,0,0,100,44,60,49,69,6,63,39,43,85,73,82,75,72,83,83,55,76,78.75,73.25,,,,,,,,,88,74,77,84,81,84,71,79,79.75,80.75,78.75,,,,,,,,,85,74,72,86,79,73,81,73,79,,,,,,,,,79,83,73,85,67,78,70,85,77.5,,,,,,,,,3,-3,2.25,2,5.5,3.75
A270HX8LH9LJ8W:3S0TNUHWKUWBZ20HZ18S3H5SGRM8DD,male,38,3,1,1,3,100,0,0,100,38,49,25,7,2,49,10,42,13,11,25,12,12,13,37,8,16.375,15.25,17.5,,,,,,,,,63,60,75,51,60,50,68,62,61.125,62.25,60,,,,,,,,,32,12,28,12,9,25,24,16,24,,,,,,,,,56,47,85,55,75,49,98,88,69.125,,,,,,,,,3,-7.625,-8,47,42.5,44.75
A25D8MUZP7CQEY:3PS7W85Z80GIUWFOQJEL8HIP2VTT9U,male,23,5,0,0,0,60,14,32,22,20,22,15,20,4,9,9,16,77,86,83,81,82,80,81,82,81.5,81.75,81.25,,,,,,,,,87,85,87,65,79,82,83,83,81.375,81,81.75,,,,,,,,,84,86,85,85,85,85,84,85,84.5,,,,,,,,,86,86,85,55,86,87,86,66,79.625,,,,,,,,,3,-3,1.75,-0.75,0.5,-0.125
A258ZJM0HU1OR3:3H7Z272LX8LF36NQYZ8R8G8NDMOLPD,male,63,5,0,0,12,11,66,32,51,73,67,63,80,79,85,89,92,90,88,81,95,90,83,81,78,85.75,88.5,83,,,,,,,,,85,89,77,77,80,90,86,90,84.25,82,86.5,,,,,,,,,91,90,87,89,78,78,89,84,87.5,,,,,,,,,88,89,80,94,78,91,90,81,86.375,,,,,,,,,3,-1.75,-2.125,-6.5,3.5,-1.5
A2541C8MY0BYV3:37W3JXSD67MPNERQT0BCUIIFGEPWY2,male,29,3,0,0,0,80,31,42,71,36,18,76,0,0,1,0,0,4,48,4,19,1,24,1,0,12.625,18.75,6.5,,,,,,,,,9,32,20,23,16,56,32,0,23.5,21,26,,,,,,,,,0,1,2,12,1,24,2,0,0,,,,,,,,,2,13,0,29,0,28,0,1,9.125,,,,,,,,,3,12.625,14.375,2.25,19.5,10.875
A23KAJRDVCVGOE:3VSOLARPKCNDVFHUB48UQ4ER9CA93K,male,41,1,0,1,13,7,83,98,5,73,43,74,75,43,56,60,90,30,30,46,33,73,45,62,50,46.125,34.75,57.5,,,,,,,,,57,80,78,57,85,66,14,66,62.875,68,57.75,,,,,,,,,67,34,22,52,47,28,69,23,45,,,,,,,,,75,84,48,82,55,72,48,62,65.75,,,,,,,,,3,1.125,-2.875,33.25,0.25,16.75
A22ZZCICZDCSTY:3DL65MZB8ETI3B4UC8ZHBLJW6M3ECX,male,28,2,1,0,14,100,0,14,0,21,49,21,21,9,35,21,9,72,56,73,40,26,56,72,88,60.375,60.25,60.5,,,,,,,,,72,56,72,41,27,56,72,85,60.125,60.25,60,,,,,,,,,72,56,89,41,26,56,88,89,80.5,,,,,,,,,73,56,88,26,26,57,88,88,62.75,,,,,,,,,3,-20.125,-2.625,0,-0.5,-0.25
A222R4PNCF08OF:30IQTZXKALK7FJ0VVXWP4922DBM0XK,female,35,1,0,1,5,100,0,0,100,77,51,27,4,1,13,2,95,38,41,26,40,41,40,40,31,37.125,36.25,38,,,,,,,,,57,58,41,58,56,55,57,57,54.875,53.5,56.25,,,,,,,,,40,41,27,40,25,42,27,33,36.5,,,,,,,,,56,56,41,55,55,55,54,55,53.375,,,,,,,,,3,0.625,1.5,17.25,18.25,17.75
A21X9A778AFCFV:36DSNE9QZ6CRNGNPGEJZ31Q5ZSNJOS,male,28,5,1,1,3,86,25,15,81,76,48,49,75,50,48,48,48,41,56,41,41,41,41,41,41,42.875,44.75,41,,,,,,,,,52,57,54,42,56,41,41,42,48.125,51.25,45,,,,,,,,,41,55,42,41,43,57,41,42,41.5,,,,,,,,,57,56,40,41,42,57,57,41,48.875,,,,,,,,,3,1.375,-0.75,6.5,4,5.25
A20XDCBFKG4TEE:3A9AA95ATX011HK56CSKRRCQRWOP5T,male,40,3,1,1,3,100,100,0,100,27,61,45,78,81,85,79,20,79,80,63,75,68,81,81,52,72.375,74.25,70.5,,,,,,,,,74,75,76,60,74,68,79,34,67.5,71.25,63.75,,,,,,,,,64,82,70,64,55,77,57,78,71,,,,,,,,,76,69,47,100,49,76,74,58,68.625,,,,,,,,,3,1.375,-1.125,-3,-6.75,-4.875
A1WMCP20AWR9A1:3TS1AR6UQRS4X89UG2BCDHCIGTX7FI,female,34,5,0,1,9,100,99,100,100,73,37,73,100,100,100,0,99,78,88,85,87,,77,83,80,82.5714285714286,84.5,80,,,,,N/A,,,,97,76,74,89,63,61,82,80,77.75,84,71.5,,,,,,,,,97,92,94,94,71,100,98,79,88,,,,,,,,,96,97,96,100,99,99,98,97,97.75,,,,,,,,,3,-5.42857142857143,-20,-0.5,-8.5,-4.82142857142857
A1VGQQPI02FE31:3KGTPGBS6YZMUP9E5FPG3QWDF3PU2T,male,40,5,1,1,7,45,70,45,67,54,37,57,42,61,40,59,47,52,67,38,29,42,59,61,40,48.5,46.5,50.5,,,,,,,,,38,55,53,54,35,64,60,27,48.25,50,46.5,,,,,,,,,70,55,46,36,33,29,54,55,62.5,,,,,,,,,32,42,38,57,59,44,64,55,48.875,,,,,,,,,3,-14,-0.625,3.5,-4,-0.25
A1S5WQ5IB8IHJL:3X4MXAO0BH2GQDF4F5JIMMPICBGWR9,male,55,3,0,0,4,70,83,87,62,52,81,61,80,77,89,51,88,71,86,88,57,86,71,86,73,77.25,75.5,79,,,,,,,,,87,91,70,73,78,74,92,26,73.875,80.25,67.5,,,,,,,,,70,58,85,88,70,78,72,89,79.5,,,,,,,,,69,73,59,81,68,80,87,85,75.25,,,,,,,,,3,-2.25,-1.375,4.75,-11.5,-3.375
A1RFA3ASEGMLBJ:3X0H8UUIT22SRSFHUUJNCWUEZ1YWS9,female,33,6,1,0,2,89,72,89,85,82,85,62,13,70,69,67,78,89,78,80,95,81,93,93,74,85.375,85.5,85.25,,,,,,,,,90,73,80,89,88,91,93,74,84.75,83,86.5,,,,,,,,,95,92,95,80,87,90,90,65,80,,,,,,,,,69,85,67,94,82,82,77,54,76.25,,,,,,,,,3,5.375,8.5,-2.5,1.25,-0.625
A1QC1K71RGKZBI:3TR2532VIQ81YAHLGIX5M14EF8O6JI,female,70,1,1,1,15,66,0,2,87,78,46,67,93,4,9,25,0,99,97,55,70,100,98,97,87,87.875,80.25,95.5,,,,,,,,,84,81,35,68,85,85,92,72,75.25,67,83.5,,,,,,,,,94,97,70,45,66,86,96,72,83,,,,,,,,,97,98,70,55,69,67,92,73,77.625,,,,,,,,,3,4.875,-2.375,-13.25,-12,-12.625
A1P2RQ166VS5BT:3SNLUL3WO51SVBVMFL7LIMVML3GLU9,female,62,1,0,0,0,3,1,48,0,47,72,45,3,2,1,2,2,71,72,70,70,,71,70,,70.6666666666667,70.75,70.5,,,,,N/A,,,N/A,,57,56,56,,,53,,55.5,56.3333333333333,53,N/A,,,,N/A,N/A,,N/A,25,69,1,70,1,47,57,25,25,,,,,,,,,40,42,82,40,,42,69,42,51,,,,,N/A,,,,3,45.6666666666667,4.5,-14.4166666666667,-17.5,-15.1666666666667
A1N7O7E8HC03D8:3OS4RQUCRATRZKCKTJNSIJYEZJOFBC,male,37,3,1,0,2,100,0,0,100,48,23,73,21,0,23,0,75,100,100,100,100,100,100,100,49,93.625,100,87.25,,,,,,,,,49,100,,26,49,70,49,,57.1666666666667,58.3333333333333,56,,,N/A,,,,,N/A,100,100,100,71,100,100,100,100,100,,,,,,,,,39,99,,41,,71,49,,59.8,,,N/A,,N/A,,,N/A,3,-6.375,-2.63333333333333,-41.6666666666667,-31.25,-36.4583333333333
A1LB8HVSXK66U0:3YDGXNSEO08YZ6HO6Q7Z0DBM36O48B,male,34,2,0,1,13,100,0,0,100,48,60,65,63,9,16,16,72,10,14,8,8,8,14,9,7,9.75,10,9.5,,,,,,,,,51,66,49,47,62,59,64,65,57.875,53.25,62.5,,,,,,,,,6,29,9,21,14,28,20,15,10.5,,,,,,,,,73,73,50,47,79,71,79,57,66.125,,,,,,,,,3,-0.75,-8.25,43.25,53,48.125
A1G8Y99C34YRXZ:30LB5CDZNDOWKE0AWFKA1UIDLBK0ZH,female,35,3,1,0,14,100,83,96,90,78,73,81,84,74,81,83,85,69,75,70,74,79,69,73,76,73.125,72,74.25,,,,,,,,,77,63,64,70,78,77,67,69,70.625,68.5,72.75,,,,,,,,,71,59,63,75,80,71,58,77,74,,,,,,,,,77,64,63,73,79,82,73,58,71.125,,,,,,,,,3,-0.875,-0.5,-3.5,-1.5,-2.5
A1FKUZN5M2FSOP:37W3JXSD67MPNERQT0BCUIIFFZ8WYQ,male,55,3,0,1,5,92,0,0,93,48,48,56,47,19,64,40,48,52,61,56,64,66,62,59,54,59.25,58.25,60.25,,,,,,,,,74,66,53,66,77,71,62,54,65.375,64.75,66,,,,,,,,,52,59,70,77,56,73,64,54,53,,,,,,,,,57,69,80,69,50,62,53,64,63,,,,,,,,,3,6.25,2.375,6.5,5.75,6.125
A1ERVCHV5QQL66:3WQQ9FUS6B8IK52XL5HM8RHSD6AB89,male,55,1,1,0,6,67,82,65,83,74,87,82,82,64,85,63,79,69,70,85,76,68,88,82,67,75.625,75,76.25,,,,,,,,,84,76,63,57,80,66,72,57,69.375,70,68.75,,,,,,,,,59,78,78,68,64,78,81,66,62.5,,,,,,,,,78,76,55,84,88,69,90,69,76.125,,,,,,,,,3,13.125,-6.75,-5,-7.5,-6.25
A1D9ZWU1M46SAF:3TPZPLC3M1QYN2X1ST4RCUE6D0XP33,male,37,2,1,0,6,68,31,15,84,73,72,26,24,1,5,0,19,46,57,61,60,55,59,55,55,56,56,56,,,,,,,,,33,38,31,30,37,32,38,26,33.125,33,33.25,,,,,,,,,29,61,49,46,53,42,51,48,38.5,,,,,,,,,52,39,30,41,30,45,31,27,36.875,,,,,,,,,3,17.5,-3.75,-23,-22.75,-22.875
A198MSVO1VTAT5:3P4RDNWND6KHRUCMIJ6UJ4UJNJOJIX,female,60,2,0,0,12,100,0,0,100,0,48,0,100,0,0,0,50,100,99,100,100,99,100,100,100,99.75,99.75,99.75,,,,,,,,,100,100,100,100,100,100,100,100,100,100,100,,,,,,,,,100,100,100,100,100,100,100,100,100,,,,,,,,,100,99,99,99,99,100,100,99,99.375,,,,,,,,,3,-0.25,0.625,0.25,0.25,0.25
A1969Q0R4Y0E3J:3KOPY89HM9G21RU3XGZ7FYSU5PRJ3A,female,25,2,0,0,0,100,0,0,100,60,79,99,50,22,75,50,46,59,78,23,86,68,81,61,58,64.25,61.5,67,,,,,,,,,55,48,54,43,36,49,47,25,44.625,50,39.25,,,,,,,,,62,74,54,68,63,71,54,70,66,,,,,,,,,52,50,64,46,53,49,54,39,50.875,,,,,,,,,3,-1.75,-6.25,-11.5,-27.75,-19.625
A18XN5P1ED4EM1:3KKG4CDWKJCYDB0YBIDD096XNC6490,male,28,3,0,1,5,52,70,56,72,57,57,42,68,42,74,58,85,32,58,68,37,37,42,62,67,50.375,48.75,52,,,,,,,,,41,27,65,70,63,47,69,48,53.75,50.75,56.75,,,,,,,,,26,74,47,28,71,54,82,72,49,,,,,,,,,56,21,47,67,39,77,88,43,54.75,,,,,,,,,3,1.375,-1,2,4.75,3.375
A18HS7NHACVPJ:3TXD01ZLD5VWX3O19T84W5TB0XFU4G,male,57,3,1,1,7,99,31,100,32,0,99,77,49,0,74,100,23,87,87,72,84,87,97,86,86,85.75,82.5,89,,,,,,,,,72,97,74,71,85,85,72,83,79.875,78.5,81.25,,,,,,,,,86,98,69,84,71,75,55,84,85,,,,,,,,,73,100,70,71,55,86,42,87,73,,,,,,,,,3,0.75,6.875,-4,-7.75,-5.875
A17LRY89BBPCUG:3OXV7EAXLF4QDWFWDX5I6UNPJJ763R,male,31,3,1,1,7,0,83,98,1,50,21,48,48,75,21,24,50,36,38,38,37,33,36,39,39,37,37.25,36.75,,,,,,,,,87,87,86,85,88,85,85,87,86.25,86.25,86.25,,,,,,,,,84,85,84,86,83,84,84,86,85,,,,,,,,,41,27,56,41,40,42,56,42,43.125,,,,,,,,,3,-48,43.125,49,49.5,49.25
A17K1CHOI773VZ:3Z7VU45IPZVWR3LSSYOAFZ1NQVL1Z0,male,31,2,0,0,4,87,2,14,86,50,23,73,47,3,25,24,50,65,58,71,50,70,54,42,40,56.25,61,51.5,,,,,,,,,44,60,42,32,53,84,72,70,57.125,44.5,69.75,,,,,,,,,85,79,41,65,72,63,72,77,81,,,,,,,,,42,72,69,65,56,44,71,50,58.625,,,,,,,,,3,-24.75,-1.5,-16.5,18.25,0.875
A15CQ19I1V6V0J:3OUYGIZWR8C26AY496M8AWGZAODP08,male,28,5,0,1,1,77,82,68,84,70,85,57,69,77,57,69,82,61,67,75,81,73,82,58,59,69.5,71,68,,,,,,,,,83,60,70,74,77,69,75,81,73.625,71.75,75.5,,,,,,,,,72,70,78,64,88,59,80,77,74.5,,,,,,,,,66,84,66,49,68,73,56,55,64.625,,,,,,,,,3,-5,9,0.75,7.5,4.125
A153HLAVH5FILS:3K772S5NP9P9KJFAY0DIMCGCIYDHEH,female,34,3,0,0,8,0,98,100,0,3,23,24,76,26,73,50,73,96,94,94,92,96,97,96,93,94.75,94,95.5,,,,,,,,,100,97,98,98,97,97,99,97,97.875,98.25,97.5,,,,,,,,,94,94,94,97,93,93,95,94,94,,,,,,,,,94,94,93,94,94,94,93,93,93.625,,,,,,,,,3,0.75,4.25,4.25,2,3.125
A12ABRH7TAD6ZJ:36WLNQG780OZT6COY83M01DEO13EBQ,male,49,3,0,0,8,1,99,100,3,8,16,11,19,3,37,19,2,49,66,59,92,51,78,49,56,62.5,66.5,58.5,,,,,,,,,99,83,66,82,51,59,96,55,73.875,82.5,65.25,,,,,,,,,64,55,98,81,86,82,64,78,71,,,,,,,,,54,64,29,66,98,80,90,78,69.875,,,,,,,,,3,-8.5,4,16,6.75,11.375
A11TPUPFP2S4MK:3X4MXAO0BH2GQDF4F5JIMMPIDZFWRL,male,37,5,0,1,1,37,49,43,30,60,19,17,34,5,16,6,10,52,41,74,55,45,44,67,57,54.375,55.5,53.25,,,,,,,,,69,55,72,69,57,62,67,60,63.875,66.25,61.5,,,,,,,,,52,47,52,61,29,40,67,45,48.5,,,,,,,,,43,65,85,67,44,40,68,51,57.875,,,,,,,,,3,5.875,6,10.75,8.25,9.5
A11Q8U6QTT8KGF:3QEMNNSB2YD7ZOVYPWGMPH9X4GHD7D,male,40,3,1,1,3,87,0,2,90,49,59,42,58,13,64,44,42,41,47,41,40,44,41,52,45,43.875,42.25,45.5,,,,,,,,,59,53,52,50,43,59,50,35,50.125,53.5,46.75,,,,,,,,,56,53,25,50,44,64,60,46,51,,,,,,,,,76,65,53,68,42,75,57,40,59.5,,,,,,,,,3,-7.125,-9.375,11.25,1.25,6.25
