id,gender,age,experience,condition,purple_bot_associate_bumble,purple_bot_associate_honey,yellow_bot_associate_bumble,yellow_bot_associate_honey,eerieness_1,eerieness_2,eerieness_3,godspeed_1,godspeed_2,godspeed_3,godspeed_4,godspeed_5,mdmt_bumble_1,mdmt_bumble_2,mdmt_bumble_3,mdmt_bumble_4,mdmt_bumble_5,mdmt_bumble_6,mdmt_bumble_7,mdmt_bumble_8,mdmt_bumble_checkbox_1,mdmt_bumble_checkbox_3,mdmt_bumble_checkbox_5,mdmt_bumble_checkbox_7,mdmt_bumble_checkbox_2,mdmt_bumble_checkbox_4,mdmt_bumble_checkbox_6,mdmt_bumble_checkbox_8,mdmt_honey_1,mdmt_honey_2,mdmt_honey_3,mdmt_honey_4,mdmt_honey_5,mdmt_honey_6,mdmt_honey_7,mdmt_honey_8,mdmt_honey_checkbox_1,mdmt_honey_checkbox_3,mdmt_honey_checkbox_5,mdmt_honey_checkbox_7,mdmt_honey_checkbox_2,mdmt_honey_checkbox_4,mdmt_honey_checkbox_6,mdmt_honey_checkbox_8,mdmt_purple_1,mdmt_purple_2,mdmt_purple_3,mdmt_purple_4,mdmt_purple_5,mdmt_purple_6,mdmt_purple_7,mdmt_purple_8,mdmt_purple_checkbox_1,mdmt_purple_checkbox_3,mdmt_purple_checkbox_5,mdmt_purple_checkbox_7,mdmt_purple_checkbox_2,mdmt_purple_checkbox_4,mdmt_purple_checkbox_6,mdmt_purple_checkbox_8,mdmt_yellow_1,mdmt_yellow_2,mdmt_yellow_3,mdmt_yellow_4,mdmt_yellow_5,mdmt_yellow_6,mdmt_yellow_7,mdmt_yellow_8,mdmt_yellow_checkbox_1,mdmt_yellow_checkbox_3,mdmt_yellow_checkbox_5,mdmt_yellow_checkbox_7,mdmt_yellow_checkbox_2,mdmt_yellow_checkbox_4,mdmt_yellow_checkbox_6,mdmt_yellow_checkbox_8,final_check_question,mdmt_bumble_NA,rel_bumble_NA,cap_bumble_NA,mdmt_honey_NA,rel_honey_NA,cap_honey_NA,mdmt_purple_NA,rel_purple_NA,cap_purple_NA,mdmt_yellow_NA,rel_yellow_NA,cap_yellow_NA,BmI_mdmt_PB_NA,BmI_rel_PB_NA,BmI_cap_PB_NA,BmI_mdmt_YH_NA,BmI_rel_YH_NA,BmI_cap_YH_NA,AD,BD
A2VB8KX3XUA6WU:320DUZ38G803V36RSV6RYSH39UWGJF,male,52,2,8,100,13,100,13,21,0,0,0,0,21,0,21,88,100,100,100,,,100,100,,,N/A,,,,N/A,,100,100,100,100,,,100,100,,,N/A,,,,N/A,,87,100,100,100,,,100,100,,,N/A,,,,N/A,,100,100,100,100,,,100,100,,,N/A,,,,N/A,,3,2,1,1,2,1,1,2,1,1,2,1,1,0,0,0,0,0,0,0,0
A2BJGX6XXE49JG:3CFJTT4SXU4O7ZBKHAHXGEPAXCO7IR,male,25,1,7,100,0,0,100,49,49,49,47,0,100,0,0,100,100,47,100,100,100,100,100,,,,,,,,,100,100,48,100,100,100,100,100,,,,,,,,,100,100,47,100,100,100,100,100,,,,,,,,,100,100,48,100,100,100,100,100,,,,,,,,,3,0,0,0,0,0,0,0,0,0,0,0,0,0,0,0,0,0,0,1,1
A198MSVO1VTAT5:3P4RDNWND6KHRUCMIJ6UJ4UJNJOJIX,female,60,2,12,100,0,0,100,0,48,0,100,0,0,0,50,100,99,100,100,99,100,100,100,,,,,,,,,100,100,100,100,100,100,100,100,,,,,,,,,100,100,100,100,100,100,100,100,,,,,,,,,100,99,99,99,99,100,100,99,,,,,,,,,3,0,0,0,0,0,0,0,0,0,0,0,0,0,0,0,0,0,0,0,0
AB8KNX3LINNX4:3TDXMTX3CC853ZXFY0C5A0PE2TZ6I6,female,27,1,8,100,0,0,99,48,47,0,46,1,47,1,1,55,100,70,26,25,70,39,99,,,,,,,,,11,70,99,11,86,85,99,70,,,,,,,,,55,38,25,40,56,40,40,56,,,,,,,,,70,27,98,40,41,56,70,99,,,,,,,,,3,0,0,0,0,0,0,0,0,0,0,0,0,0,0,0,0,0,0,0,0
A33ST4DW1A4PGK:3GNA64GUZFIM1TLK6P79RW20XHRQ5H,male,31,1,7,100,0,0,100,48,48,22,74,0,0,0,75,86,84,50,86,86,85,70,99,,,,,,,,,9,11,47,25,10,0,,12,,,,N/A,,,,,49,88,24,53,69,55,86,82,,,,,,,,,0,11,42,0,0,0,,0,,,,N/A,,,,,3,0,0,0,1,1,0,0,0,0,1,1,0,0,0,0,0,0,0,1,1
A2VN59CZEQ7P0R:3X0H8UUIT22SRSFHUUJNCWUEYDZWSX,male,40,1,10,100,0,0,100,24,20,2,37,12,47,22,73,99,99,99,,,100,100,99,,,N/A,,,N/A,,,99,100,100,,,100,100,100,,,N/A,,,N/A,,,99,99,98,,,99,99,100,,,N/A,,,N/A,,,100,100,100,,,100,100,99,,,N/A,,,N/A,,,3,2,1,1,2,1,1,2,1,1,2,1,1,0,0,0,0,0,0,1,0
AU0Q98WJMJQQL:3P1L2B7AD23XI6BPJZVCJG3X3HSLOW,male,38,5,15,100,0,0,100,92,98,98,99,47,97,0,98,100,98,99,100,97,97,96,97,,,,,,,,,99,99,97,98,,97,98,99,,,N/A,,,,,,97,96,97,97,,96,96,100,,,N/A,,,,,,98,97,98,97,,98,99,98,,,N/A,,,,,,3,0,0,0,1,1,0,1,1,0,1,1,0,1,1,0,0,0,0,1,1
A3EJKDC48PG8QN:36PW28KO40AUAW7WSU3Q5QT86JIEAV,male,50,3,1,100,0,0,100,47,27,97,76,12,97,50,97,98,96,61,96,97,95,96,97,,,,,,,,,83,92,70,85,73,83,83,78,,,,,,,,,96,95,80,96,79,98,98,93,,,,,,,,,98,96,70,96,62,94,93,65,,,,,,,,,3,0,0,0,0,0,0,0,0,0,0,0,0,0,0,0,0,0,0,0,1
A2WC8DV7EB0FOY:3WEV0KO0ON6TIMFQDZEXK85TSLTDSI,male,51,5,13,100,93,95,85,78,67,80,98,91,90,96,92,93,94,96,92,90,96,96,97,,,,,,,,,98,97,97,98,92,96,92,94,,,,,,,,,89,92,89,93,91,94,90,92,,,,,,,,,94,98,96,98,80,84,97,90,,,,,,,,,3,0,0,0,0,0,0,0,0,0,0,0,0,0,0,0,0,0,0,0,1
A24HQE7STL1RP:3QY7M81QH80FDU18HD29TU4NQ40K7F,female,30,3,15,100,0,0,100,58,85,97,100,97,96,97,96,90,91,91,93,87,99,94,95,,,,,,,,,95,96,94,93,95,92,92,94,,,,,,,,,95,98,93,92,98,98,96,95,,,,,,,,,97,96,96,93,94,99,95,96,,,,,,,,,3,0,0,0,0,0,0,0,0,0,0,0,0,0,0,0,0,0,0,1,1
A37GOGQDYDT44K:3ND9UOO81LG5NFKRALMM0AGJ70EWL5,female,31,1,12,100,0,0,100,48,49,0,22,0,0,0,45,97,96,,100,,99,,94,,N/A,N/A,N/A,,,,,,90,,92,,99,,85,N/A,N/A,N/A,N/A,,,,,96,96,,96,,98,71,100,,N/A,N/A,,,,,,,82,,51,,56,,51,N/A,N/A,N/A,N/A,,,,,3,3,3,0,4,4,0,2,2,0,4,4,0,-1,-1,0,0,0,0,0,0
A2WJMGV0HKQG3Z:3Z4AIRP3C7R7M8LDRG0PIELCIVN1X3,female,67,3,13,100,2,3,97,3,5,48,68,81,93,95,89,97,97,,96,95,94,94,93,,N/A,,,,,,,96,95,,93,94,97,95,98,,N/A,,,,,,,98,98,,96,97,96,97,90,,N/A,,,,,,,99,98,,97,98,97,,83,,N/A,,N/A,,,,,3,1,1,0,1,1,0,1,1,0,2,2,0,0,0,0,1,1,0,0,1
AVZB267DUK746:32M8BPYGAU070SMLADLRMR23WF7GI3,male,61,6,3,100,0,0,100,72,88,40,69,34,83,89,98,90,84,74,88,82,86,88,90,,,,,,,,,75,71,75,72,81,69,69,63,,,,,,,,,61,80,72,97,77,84,81,63,,,,,,,,,84,80,86,49,46,90,89,45,,,,,,,,,3,0,0,0,0,0,0,0,0,0,0,0,0,0,0,0,0,0,0,1,1
A2NO3OTBZYY43Z:3Q8GYXHFEQGI7SB1176E7RDJT2R5CS,female,45,2,2,100,0,0,99,47,46,23,25,3,48,2,1,96,99,,98,,97,,90,,N/A,N/A,N/A,,,,,,,,,,,,,N/A,N/A,N/A,N/A,N/A,N/A,N/A,N/A,99,99,,96,,98,,85,,N/A,N/A,N/A,,,,,,,,,,,,,N/A,N/A,N/A,N/A,N/A,N/A,N/A,N/A,3,3,3,0,8,4,4,3,3,0,8,4,4,0,0,0,0,0,0,1,0
A22ZZCICZDCSTY:3DL65MZB8ETI3B4UC8ZHBLJW6M3ECX,male,28,2,14,100,0,14,0,21,49,21,21,9,35,21,9,72,56,73,40,26,56,72,88,,,,,,,,,72,56,72,41,27,56,72,85,,,,,,,,,72,56,89,41,26,56,88,89,,,,,,,,,73,56,88,26,26,57,88,88,,,,,,,,,3,0,0,0,0,0,0,0,0,0,0,0,0,0,0,0,0,0,0,1,0
A2TXZVXQU5FQZ9:32EYX73OY1N3Y9QZK54H4Y4LSKARUP,male,34,3,15,100,0,0,100,23,24,22,48,49,49,49,59,78,77,86,78,78,78,98,87,,,,,,,,,77,78,85,78,78,77,100,86,,,,,,,,,78,78,77,77,78,79,99,87,,,,,,,,,79,79,89,79,81,80,98,86,,,,,,,,,3,0,0,0,0,0,0,0,0,0,0,0,0,0,0,0,0,0,0,1,1
AOAZMLP27GD81:3VW6495TLKETCJMQ81T0FF3VRUUYYO,male,40,2,14,100,0,0,100,40,37,3,0,0,49,0,0,83,71,84,63,70,72,81,86,,,,,,,,,70,56,73,50,68,59,74,70,,,,,,,,,78,77,77,64,73,67,80,77,,,,,,,,,69,56,70,45,70,57,78,63,,,,,,,,,3,0,0,0,0,0,0,0,0,0,0,0,0,0,0,0,0,0,0,1,0
AKZD89B2WLSX7:3IX2EGZR7CXUKTF58603XWVAAF7RJ9,female,50,1,2,100,0,0,100,0,0,0,73,2,21,61,49,87,86,98,97,97,90,96,86,,,,,,,,,67,62,58,69,59,68,65,68,,,,,,,,,98,85,98,99,97,86,84,88,,,,,,,,,71,58,56,72,70,57,71,71,,,,,,,,,3,0,0,0,0,0,0,0,0,0,0,0,0,0,0,0,0,0,0,1,0
AMHUDJ44HF1ZH:3BXQMRHWK0CC1TD7FX80IZABNKTMUP,male,65,2,5,100,0,0,100,48,49,48,48,63,48,60,73,86,85,72,86,88,87,87,85,,,,,,,,,55,44,40,56,55,42,42,41,,,,,,,,,56,71,55,69,69,55,57,57,,,,,,,,,77,84,77,79,79,78,82,79,,,,,,,,,3,0,0,0,0,0,0,0,0,0,0,0,0,0,0,0,0,0,0,0,1
A1BVG13MHBM1YD:3FDJT1UU75M0QQNPTKNCVAQRZY5K50,female,43,1,8,100,0,0,100,22,22,49,23,2,74,74,73,88,86,85,86,85,85,85,85,,,,,,,,,86,86,72,86,85,85,86,87,,,,,,,,,85,82,71,85,74,81,85,85,,,,,,,,,85,85,74,87,86,85,86,85,,,,,,,,,3,0,0,0,0,0,0,0,0,0,0,0,0,0,0,0,0,0,0,0,0
A2QQ3FZXBM1SAX:3M68NM076ILIWY0YON6EOSQ5PY76RH,male,47,1,4,100,0,0,100,64,49,73,73,12,17,3,8,88,85,84,84,48,85,84,84,,,,,,,,,82,90,83,87,49,82,84,83,,,,,,,,,86,85,87,86,50,85,85,88,,,,,,,,,83,83,81,83,51,83,83,84,,,,,,,,,3,0,0,0,0,0,0,0,0,0,0,0,0,0,0,0,0,0,0,0,0
A11C7NL22YLPBS:3KYQYYSHYWLEKUNX6IXO03VSVWSDON,male,52,1,10,100,2,1,100,19,21,13,67,13,92,10,20,78,82,69,82,85,85,77,81,,,,,,,,,20,31,19,32,22,26,20,37,,,,,,,,,85,85,70,86,70,77,83,90,,,,,,,,,40,12,12,17,21,30,38,64,,,,,,,,,3,0,0,0,0,0,0,0,0,0,0,0,0,0,0,0,0,0,0,1,0
AILDNTO2TWB4A:3ZPPDN2SLWAG5DXR0OPQ9VIO02JE91,male,30,2,6,100,0,0,100,24,49,35,62,0,38,11,0,82,83,72,81,79,80,83,80,,,,,,,,,56,56,42,56,42,57,56,55,,,,,,,,,85,84,72,84,84,85,71,83,,,,,,,,,57,56,41,56,41,55,57,57,,,,,,,,,3,0,0,0,0,0,0,0,0,0,0,0,0,0,0,0,0,0,0,1,0
A1WMCP20AWR9A1:3TS1AR6UQRS4X89UG2BCDHCIGTX7FI,female,34,5,9,100,99,100,100,73,37,73,100,100,100,0,99,78,88,85,87,,77,83,80,,,N/A,,,,,,97,76,74,89,63,61,82,80,,,,,,,,,97,92,94,94,71,100,98,79,,,,,,,,,96,97,96,100,99,99,98,97,,,,,,,,,3,1,1,0,0,0,0,0,0,0,0,0,0,-1,-1,0,0,0,0,0,1
A18G2CLYSTENK:3NJM2BJS4XKM02TKLMFS5XI0LPXCP1,male,31,3,3,100,13,8,84,61,18,19,90,0,67,18,43,61,73,65,74,76,78,73,80,,,,,,,,,83,73,71,79,65,80,77,69,,,,,,,,,86,84,75,74,76,61,61,76,,,,,,,,,39,71,60,72,55,56,41,69,,,,,,,,,3,0,0,0,0,0,0,0,0,0,0,0,0,0,0,0,0,0,0,1,1
A1G8Y99C34YRXZ:30LB5CDZNDOWKE0AWFKA1UIDLBK0ZH,female,35,3,14,100,83,96,90,78,73,81,84,74,81,83,85,69,75,70,74,79,69,73,76,,,,,,,,,77,63,64,70,78,77,67,69,,,,,,,,,71,59,63,75,80,71,58,77,,,,,,,,,77,64,63,73,79,82,73,58,,,,,,,,,3,0,0,0,0,0,0,0,0,0,0,0,0,0,0,0,0,0,0,1,0
A2YKTNPYFTACIN:33NF62TLXKG8XP2AIMR6WK9WFNDJK8,male,29,3,4,100,0,0,100,74,48,75,64,84,55,81,66,55,70,51,74,41,56,63,74,,,,,,,,,79,50,42,68,52,46,62,71,,,,,,,,,46,69,46,45,70,72,64,42,,,,,,,,,64,40,45,51,78,69,65,73,,,,,,,,,3,0,0,0,0,0,0,0,0,0,0,0,0,0,0,0,0,0,0,0,0
A2CHDWKAYZ3P3E:3M81GAB8A1XOQ92T7ZYMUI2S7D7BQX,male,33,4,6,100,3,0,100,63,49,54,17,7,1,3,34,93,92,89,94,93,92,91,72,,,,,,,,,7,38,56,20,13,16,56,28,,,,,,,,,95,95,73,93,95,90,90,74,,,,,,,,,30,17,55,26,29,23,55,34,,,,,,,,,3,0,0,0,0,0,0,0,0,0,0,0,0,0,0,0,0,0,0,1,0
A2LAMCJLVCRQ4T:3IJXV6UZ1YXYPIVZQOF3LVGAZC5RIA,female,33,3,8,100,0,0,100,8,21,35,48,0,49,20,21,70,73,56,73,71,71,71,71,,,,,,,,,72,56,56,57,71,71,72,71,,,,,,,,,86,88,41,87,72,86,86,73,,,,,,,,,70,73,57,71,70,72,72,71,,,,,,,,,3,0,0,0,0,0,0,0,0,0,0,0,0,0,0,0,0,0,0,0,0
AQV468FB908WI:3TPZPLC3M1QYN2X1ST4RCUE6D0Y3PI,female,35,2,2,100,0,0,100,100,74,90,74,0,50,24,51,58,70,57,58,56,56,73,70,,,,,,,,,94,87,85,83,99,87,83,85,,,,,,,,,98,98,55,86,83,87,82,86,,,,,,,,,71,56,30,56,61,69,70,71,,,,,,,,,3,0,0,0,0,0,0,0,0,0,0,0,0,0,0,0,0,0,0,1,0
A1345KGM9X6ZTC:37WLF8U1WQ4W9UN3Y3XHNG4RVTGK6G,male,22,7,4,100,100,84,88,87,72,68,64,72,81,79,86,81,68,68,82,74,67,85,70,,,,,,,,,9,55,56,61,53,61,58,70,,,,,,,,,82,82,82,83,82,80,82,84,,,,,,,,,78,75,64,75,61,73,77,77,,,,,,,,,3,0,0,0,0,0,0,0,0,0,0,0,0,0,0,0,0,0,0,0,0
A1F1TBDHPYAAXT:3TUI152ZZC1NDBK1525XO6PJL1MQ1Z,male,71,2,14,100,1,0,98,49,50,23,48,2,23,23,22,69,77,67,61,69,65,67,69,,,,,,,,,73,69,72,73,45,72,67,70,,,,,,,,,77,64,68,68,43,57,64,71,,,,,,,,,57,54,13,43,56,70,69,63,,,,,,,,,3,0,0,0,0,0,0,0,0,0,0,0,0,0,0,0,0,0,0,1,0
A2JDYN6QM8M5UN:3C6FJU71TR7CVA2LY0WBCUXIV6JYUQ,male,26,1,4,100,0,0,100,49,48,31,2,0,0,3,62,71,71,72,56,70,71,72,68,,,,,,,,,99,100,88,92,89,96,98,72,,,,,,,,,56,70,70,70,73,71,70,72,,,,,,,,,95,98,95,95,97,97,93,92,,,,,,,,,3,0,0,0,0,0,0,0,0,0,0,0,0,0,0,0,0,0,0,0,0
A3RHJEMZ4EGY2U:3OLF68YTNAFMGA7SN5NWN8E8JGPAFU,female,26,2,5,100,0,0,100,19,47,0,49,21,28,18,48,54,55,53,58,65,54,54,66,,,,,,,,,31,38,33,35,27,38,31,21,,,,,,,,,64,59,65,59,64,62,63,63,,,,,,,,,41,61,43,59,45,62,45,30,,,,,,,,,3,0,0,0,0,0,0,0,0,0,0,0,0,0,0,0,0,0,0,0,1
AA4QUDJHEUKYX:3YMU66OBIOM74XB14V36MF1OW3NHG8,female,43,3,13,100,0,2,100,65,71,49,40,70,51,65,63,61,35,44,45,49,35,59,61,,,,,,,,,45,63,59,47,40,56,54,49,,,,,,,,,49,59,69,39,41,47,48,55,,,,,,,,,56,57,41,34,56,52,47,55,,,,,,,,,3,0,0,0,0,0,0,0,0,0,0,0,0,0,0,0,0,0,0,0,1
A3KP8KFGG6734Q:3YMU66OBIOM74XB14V36MF1OW2SGHA,female,56,2,4,100,0,0,100,47,48,47,51,23,7,4,10,76,88,83,77,76,81,77,59,,,,,,,,,77,78,78,74,47,75,76,47,,,,,,,,,77,73,71,76,55,92,73,73,,,,,,,,,85,72,69,82,27,70,60,71,,,,,,,,,3,0,0,0,0,0,0,0,0,0,0,0,0,0,0,0,0,0,0,0,0
A1969Q0R4Y0E3J:3KOPY89HM9G21RU3XGZ7FYSU5PRJ3A,female,25,2,0,100,0,0,100,60,79,99,50,22,75,50,46,59,78,23,86,68,81,61,58,,,,,,,,,55,48,54,43,36,49,47,25,,,,,,,,,62,74,54,68,63,71,54,70,,,,,,,,,52,50,64,46,53,49,54,39,,,,,,,,,3,0,0,0,0,0,0,0,0,0,0,0,0,0,0,0,0,0,0,0,0
A3RQN5RZD1N2KP:31LVTDXBL8O0FJ35BRCGDB82GGZRLO,female,47,1,2,100,0,0,100,76,18,49,23,0,49,0,49,56,70,41,70,71,70,69,55,,,,,,,,,42,43,41,57,40,42,41,41,,,,,,,,,56,71,41,70,71,71,70,56,,,,,,,,,26,56,42,27,71,42,70,28,,,,,,,,,3,0,0,0,0,0,0,0,0,0,0,0,0,0,0,0,0,0,0,1,0
A28D6AWNCMLKFB:3RU7GD8VPP727JIGI85SK2MI5EFSPD,female,59,3,7,100,0,0,100,44,60,49,69,6,63,39,43,85,73,82,75,72,83,83,55,,,,,,,,,88,74,77,84,81,84,71,79,,,,,,,,,85,74,72,86,79,73,81,73,,,,,,,,,79,83,73,85,67,78,70,85,,,,,,,,,3,0,0,0,0,0,0,0,0,0,0,0,0,0,0,0,0,0,0,1,1
A20XDCBFKG4TEE:3A9AA95ATX011HK56CSKRRCQRWOP5T,male,40,3,3,100,100,0,100,27,61,45,78,81,85,79,20,79,80,63,75,68,81,81,52,,,,,,,,,74,75,76,60,74,68,79,34,,,,,,,,,64,82,70,64,55,77,57,78,,,,,,,,,76,69,47,100,49,76,74,58,,,,,,,,,3,0,0,0,0,0,0,0,0,0,0,0,0,0,0,0,0,0,0,1,1
AZ69TBTDH7AZS:3JJVG1YBECBZXNJVN7AJW771BHR5BL,male,27,7,5,100,0,0,100,49,48,0,49,0,49,49,0,49,50,50,51,51,50,50,51,,,,,,,,,49,49,48,49,50,49,49,49,,,,,,,,,49,49,50,50,51,50,50,50,,,,,,,,,50,50,50,49,50,48,50,47,,,,,,,,,3,0,0,0,0,0,0,0,0,0,0,0,0,0,0,0,0,0,0,0,1
ALDIDTJMHZNAI:3JBT3HLQF9GZ8V4UD0Z0GVJLTKDPZW,male,40,3,2,100,14,16,100,0,100,49,49,0,100,100,74,51,91,94,88,88,90,87,49,,,,,,,,,50,97,51,96,86,87,92,50,,,,,,,,,53,86,86,86,85,87,87,50,,,,,,,,,80,88,47,80,88,47,86,48,,,,,,,,,3,0,0,0,0,0,0,0,0,0,0,0,0,0,0,0,0,0,0,1,0
A1N7O7E8HC03D8:3OS4RQUCRATRZKCKTJNSIJYEZJOFBC,male,37,3,2,100,0,0,100,48,23,73,21,0,23,0,75,100,100,100,100,100,100,100,49,,,,,,,,,49,100,,26,49,70,49,,,N/A,,,,,,N/A,100,100,100,71,100,100,100,100,,,,,,,,,39,99,,41,,71,49,,,N/A,N/A,,,,,N/A,3,0,0,0,2,1,1,0,0,0,3,2,1,0,0,0,1,1,0,1,0
A2VO8C41JJIQY9:3DPNQGW4LMTBVSY0DBA1GZFVXCL46E,male,31,4,3,100,0,0,100,75,50,77,0,0,21,0,0,41,27,88,27,34,28,32,36,,,,,,,,,79,63,91,41,87,87,86,78,,,,,,,,,37,30,78,59,55,38,38,10,,,,,,,,,77,76,84,94,74,100,55,85,,,,,,,,,3,0,0,0,0,0,0,0,0,0,0,0,0,0,0,0,0,0,0,1,1
A222R4PNCF08OF:30IQTZXKALK7FJ0VVXWP4922DBM0XK,female,35,1,5,100,0,0,100,77,51,27,4,1,13,2,95,38,41,26,40,41,40,40,31,,,,,,,,,57,58,41,58,56,55,57,57,,,,,,,,,40,41,27,40,25,42,27,33,,,,,,,,,56,56,41,55,55,55,54,55,,,,,,,,,3,0,0,0,0,0,0,0,0,0,0,0,0,0,0,0,0,0,0,0,1
A3GPTSDDHJ2DBV:31UV0MXWNRQ9KVX1TH20IUBE7UGI5N,female,32,2,9,100,0,0,100,0,0,0,98,2,2,2,16,28,29,72,28,31,28,30,30,,,,,,,,,45,45,44,45,46,45,44,47,,,,,,,,,30,31,75,31,33,31,77,30,,,,,,,,,49,50,83,51,49,81,85,47,,,,,,,,,3,0,0,0,0,0,0,0,0,0,0,0,0,0,0,0,0,0,0,0,1
AIQM86IRETAJN:3QFUFYSY9ZT7ELRBE4D5A5S8QA14FS,female,34,1,9,100,0,0,100,47,74,100,21,0,47,22,24,70,40,57,55,55,87,72,27,,,,,,,,,11,1,25,2,1,10,0,28,,,,,,,,,71,72,27,85,41,87,71,13,,,,,,,,,0,12,27,0,0,11,12,41,,,,,,,,,3,0,0,0,0,0,0,0,0,0,0,0,0,0,0,0,0,0,0,0,1
A30HUZHJBOX1LK:3ZY8KE4ISKH3ZN0ZCGPMVUWZ9HLVQ8,male,52,3,7,100,0,0,100,17,47,1,21,16,21,24,72,25,21,27,12,28,12,39,25,,,,,,,,,75,58,65,57,70,55,55,51,,,,,,,,,27,13,44,28,14,26,42,57,,,,,,,,,46,63,72,47,40,44,75,41,,,,,,,,,3,0,0,0,0,0,0,0,0,0,0,0,0,0,0,0,0,0,0,1,1
A21ZK49H9LSSRY:3QAVNHZ3ENI8G2HO9GQUILJSFPXALA,female,31,1,9,100,0,0,100,22,48,2,63,4,76,60,6,40,42,33,40,41,41,41,25,,,,,,,,,89,95,56,95,100,87,58,100,,,,,,,,,42,40,25,42,41,27,40,23,,,,,,,,,100,100,57,86,89,100,57,100,,,,,,,,,3,0,0,0,0,0,0,0,0,0,0,0,0,0,0,0,0,0,0,0,1
A270HX8LH9LJ8W:3S0TNUHWKUWBZ20HZ18S3H5SGRM8DD,male,38,3,3,100,0,0,100,38,49,25,7,2,49,10,42,13,11,25,12,12,13,37,8,,,,,,,,,63,60,75,51,60,50,68,62,,,,,,,,,32,12,28,12,9,25,24,16,,,,,,,,,56,47,85,55,75,49,98,88,,,,,,,,,3,0,0,0,0,0,0,0,0,0,0,0,0,0,0,0,0,0,0,1,1
AQN3WMCEA96DQ:3VHP9MDGROYA9P4Q7JJNT34WH4OFCJ,male,39,3,13,100,0,0,100,100,76,69,0,0,30,20,0,8,12,12,13,13,14,15,7,,,,,,,,,72,72,69,71,71,69,74,77,,,,,,,,,0,53,9,15,2,12,1,13,,,,,,,,,56,88,41,99,50,91,55,73,,,,,,,,,3,0,0,0,0,0,0,0,0,0,0,0,0,0,0,0,0,0,0,0,1
A1LB8HVSXK66U0:3YDGXNSEO08YZ6HO6Q7Z0DBM36O48B,male,34,2,13,100,0,0,100,48,60,65,63,9,16,16,72,10,14,8,8,8,14,9,7,,,,,,,,,51,66,49,47,62,59,64,65,,,,,,,,,6,29,9,21,14,28,20,15,,,,,,,,,73,73,50,47,79,71,79,57,,,,,,,,,3,0,0,0,0,0,0,0,0,0,0,0,0,0,0,0,0,0,0,0,1
A1FKRZKU1H9YFC:33LKR6A5KFY05RCTM6ZSTB0658LT1G,female,38,3,13,100,0,0,100,67,49,7,0,0,55,10,0,12,12,12,8,12,8,12,7,,,,,,,,,47,47,46,46,46,45,47,46,,,,,,,,,4,15,18,23,17,15,25,11,,,,,,,,,64,47,48,48,27,49,49,48,,,,,,,,,3,0,0,0,0,0,0,0,0,0,0,0,0,0,0,0,0,0,0,0,1
AKVDK30EEV08C:33LKR6A5KFY05RCTM6ZSTB064J51TT,female,62,1,9,100,0,0,100,24,49,0,0,0,0,0,64,54,61,30,59,0,58,29,0,,,,,,,,,24,40,1,36,0,40,28,0,,,,,,,,,49,62,0,58,0,64,32,0,,,,,,,,,38,44,0,40,0,27,42,0,,,,,,,,,3,0,0,0,0,0,0,0,0,0,0,0,0,0,0,0,0,0,0,0,1
A1YFVXP4A1CXSF:3NKQQ8O39ZJ9XZ7U249XZ9NHDIEDUY,female,39,3,3,100,0,99,0,48,22,23,50,0,40,0,24,2,2,0,0,1,3,13,0,,,,,,,,,0,48,26,47,12,18,23,44,,,,,,,,,43,32,31,34,27,45,31,28,,,,,,,,,36,59,17,49,0,12,28,14,,,,,,,,,3,0,0,0,0,0,0,0,0,0,0,0,0,0,0,0,0,0,0,1,1
A3QQD4LWY6RWGA:32SCWG5HIIIXKLKJBV2PJXQQO7TP60,male,32,2,4,100,0,0,100,47,75,74,75,50,35,0,100,55,58,45,58,,86,40,,,,N/A,,,,,N/A,47,48,50,85,70,48,86,,,,,,,,,N/A,49,63,34,48,,58,62,,,,N/A,,,,,N/A,71,38,47,68,,81,43,,,,N/A,,,,,N/A,3,2,1,1,1,0,1,2,1,1,2,1,1,0,0,0,1,1,0,0,0
A3NXT3OVGL7QNR:358010RM5F7N8K1BYUKEP2SS78PXV1,male,31,1,10,100,0,0,100,21,50,0,21,0,0,0,0,57,73,88,72,57,73,88,,,,,,,,,N/A,,,,,,,,,N/A,N/A,N/A,N/A,N/A,N/A,N/A,N/A,57,74,86,73,57,73,88,,,,,,,,,N/A,,,,,,,,,N/A,N/A,N/A,N/A,N/A,N/A,N/A,N/A,3,1,0,1,8,4,4,1,0,1,8,4,4,0,0,0,0,0,0,1,0
A3KC385CZNYEG5:3VSOLARPKCNDVFHUB48UQ4ER9KF39Z,na,23,3,4,100,0,0,100,50,48,1,22,23,0,0,12,56,56,84,56,,54,77,,,,N/A,,,,,N/A,54,56,73,55,,54,56,,,,N/A,,,,,N/A,57,57,80,59,,57,81,,,,N/A,,,,,N/A,54,55,83,55,,55,72,,,,N/A,,,,,N/A,3,2,1,1,2,1,1,2,1,1,2,1,1,0,0,0,0,0,0,0,0
A2LQKVH2J0EV9Q:3YMU66OBIOM74XB14V36MF1OVESHGY,male,29,3,14,100,100,0,100,0,50,33,67,39,53,43,40,89,89,82,83,82,87,82,,,,,,,,,N/A,67,84,80,76,68,75,77,,,,,,,,,N/A,86,94,90,85,87,89,92,,,,,,,,,N/A,70,86,66,66,69,81,84,,,,,,,,,N/A,3,1,0,1,1,0,1,1,0,1,1,0,1,0,0,0,0,0,0,1,0
A1ZVTAK0GLO959:3Z4XG4ZF495PX85YQ194XO8KXYIX83,female,33,2,7,100,0,0,100,100,22,48,75,24,75,48,89,56,55,55,55,55,56,71,,,,,,,,,N/A,,85,56,,85,86,55,,N/A,,,,,N/A,,N/A,55,56,55,55,56,73,85,,,,,,,,,N/A,,86,56,,,85,56,,N/A,,N/A,,,N/A,,N/A,3,1,0,1,3,1,2,1,0,1,4,2,2,0,0,0,1,1,0,1,1
A3O7X46E3REM7I:34X6J5FLPUCU8S05VRB3S6L5EQ6JQV,male,33,3,1,99,0,1,100,25,49,0,24,1,0,1,22,100,85,98,94,100,86,97,98,,,,,,,,,95,99,96,97,97,98,97,98,,,,,,,,,98,85,100,97,100,98,98,97,,,,,,,,,86,88,98,86,100,87,97,99,,,,,,,,,3,0,0,0,0,0,0,0,0,0,0,0,0,0,0,0,0,0,0,0,1
A3KF6O09H04SP7:32SCWG5HIIIXKLKJBV2PJXQQNRZP69,male,36,3,11,99,0,0,99,26,48,3,19,3,46,26,4,89,92,83,93,78,90,89,90,,,,,,,,,77,79,85,78,73,79,86,75,,,,,,,,,75,87,81,84,73,91,86,89,,,,,,,,,74,82,88,81,75,86,90,68,,,,,,,,,3,0,0,0,0,0,0,0,0,0,0,0,0,0,0,0,0,0,0,1,1
A18HS7NHACVPJ:3TXD01ZLD5VWX3O19T84W5TB0XFU4G,male,57,3,7,99,31,100,32,0,99,77,49,0,74,100,23,87,87,72,84,87,97,86,86,,,,,,,,,72,97,74,71,85,85,72,83,,,,,,,,,86,98,69,84,71,75,55,84,,,,,,,,,73,100,70,71,55,86,42,87,,,,,,,,,3,0,0,0,0,0,0,0,0,0,0,0,0,0,0,0,0,0,0,1,1
A2OVMMDZQ524IL:378XPAWRUDR6Q19IODTHQ5R0Z8HAIL,male,28,3,6,99,1,98,0,49,8,60,93,60,57,70,64,70,90,85,87,60,69,86,73,,,,,,,,,62,61,85,80,64,76,67,82,,,,,,,,,83,76,79,65,67,71,68,83,,,,,,,,,77,75,83,81,63,82,72,60,,,,,,,,,3,0,0,0,0,0,0,0,0,0,0,0,0,0,0,0,0,0,0,1,0
A2A5HAPJD18TRU:3QAVNHZ3ENI8G2HO9GQUILJSFPELA2,female,36,2,10,99,3,3,98,80,52,48,3,1,48,1,22,82,71,70,74,72,86,72,58,,,,,,,,,56,40,43,45,45,31,39,43,,,,,,,,,72,85,73,85,72,85,73,57,,,,,,,,,41,46,56,44,2,41,70,42,,,,,,,,,3,0,0,0,0,0,0,0,0,0,0,0,0,0,0,0,0,0,0,1,0
A272X64FOZFYLB:3HYA4D452SXXB7COAQUHHQVA6XV2FM,male,26,2,15,99,1,1,100,49,47,74,0,0,0,0,11,0,0,0,0,0,4,0,11,,,,,,,,,,,,,,,,,N/A,N/A,N/A,N/A,N/A,N/A,N/A,N/A,3,5,0,1,0,1,0,10,,,,,,,,,,,,,,,,,N/A,N/A,N/A,N/A,N/A,N/A,N/A,N/A,3,0,0,0,8,4,4,0,0,0,8,4,4,0,0,0,0,0,0,1,1
A10XW6SNPNQX16:3QAPZX2QN5R6E3XY78BWEJ8603802Y,female,36,1,8,98,3,97,1,5,49,3,19,3,21,3,18,91,92,91,91,96,88,97,90,,,,,,,,,96,92,95,90,95,91,95,92,,,,,,,,,96,97,85,92,82,92,88,89,,,,,,,,,86,88,91,97,90,87,95,90,,,,,,,,,3,0,0,0,0,0,0,0,0,0,0,0,0,0,0,0,0,0,0,0,0
A3RJK6ZDXHN0IG:3X66WABAJXWSAP42PAE4IL0EDXA3GQ,female,28,7,9,98,86,95,97,49,49,99,99,49,48,3,54,87,84,85,84,85,88,85,84,,,,,,,,,90,88,89,94,92,90,90,75,,,,,,,,,98,99,99,98,98,99,99,99,,,,,,,,,98,97,97,99,99,97,98,57,,,,,,,,,3,0,0,0,0,0,0,0,0,0,0,0,0,0,0,0,0,0,0,0,1
A26U3I04KNBNLK:3A0EX8ZRN92XZBTFY9FG745U79GYBQ,female,28,2,13,98,13,14,81,22,70,71,49,56,61,46,40,41,29,31,32,34,31,42,29,,,,,,,,,78,80,78,78,80,86,77,78,,,,,,,,,75,74,71,73,75,71,75,75,,,,,,,,,54,59,32,65,39,58,54,59,,,,,,,,,3,0,0,0,0,0,0,0,0,0,0,0,0,0,0,0,0,0,0,0,1
A28QZ8YDI84V0R:3DIP6YHAPD6GR8EHVWJC9ZNDFDA8EC,female,30,3,8,96,10,97,56,81,59,48,89,70,59,10,9,81,73,68,84,88,85,74,81,,,,,,,,,89,72,75,82,83,87,89,67,,,,,,,,,80,75,78,88,66,90,90,79,,,,,,,,,63,69,83,78,86,75,87,75,,,,,,,,,3,0,0,0,0,0,0,0,0,0,0,0,0,0,0,0,0,0,0,0,0
A3R168GJZRF7KU:3S96KQ6I9NIUXMS52ZJNUD1FU47DT7,female,28,7,11,95,97,97,94,49,50,95,94,23,96,16,94,89,88,86,89,88,91,87,88,,,,,,,,,91,91,91,90,89,88,87,89,,,,,,,,,97,92,91,93,95,91,92,94,,,,,,,,,95,96,95,94,95,95,96,96,,,,,,,,,3,0,0,0,0,0,0,0,0,0,0,0,0,0,0,0,0,0,0,1,1
A38E7RFKL5PDFP:3DPNQGW4LMTBVSY0DBA1GZFVXJ364C,male,26,5,0,95,13,2,93,57,25,66,79,60,86,68,80,74,72,59,52,78,82,75,37,,,,,,,,,79,89,62,67,63,78,77,76,,,,,,,,,22,37,53,53,78,58,71,55,,,,,,,,,40,61,53,67,43,63,37,48,,,,,,,,,3,0,0,0,0,0,0,0,0,0,0,0,0,0,0,0,0,0,0,0,0
A3HV4K6ZCL0LA4:3WZ36BJEV4U1IPULO3SHZNDFRBQBTD,male,28,7,3,94,96,72,97,89,74,96,96,57,96,79,97,82,91,95,68,81,97,97,85,,,,,,,,,84,97,95,99,95,96,70,97,,,,,,,,,69,97,97,95,73,95,97,97,,,,,,,,,63,80,96,96,95,96,80,93,,,,,,,,,3,0,0,0,0,0,0,0,0,0,0,0,0,0,0,0,0,0,0,1,1
A5DTG37NL4GAG:3DEL4X4EL7Z4CEWG357YW1WMO01YX6,female,53,6,9,93,91,78,90,81,91,68,75,62,57,62,67,72,49,82,52,77,82,54,56,,,,,,,,,79,57,54,79,57,85,49,70,,,,,,,,,64,82,91,74,70,61,68,83,,,,,,,,,69,60,40,74,47,54,78,78,,,,,,,,,3,0,0,0,0,0,0,0,0,0,0,0,0,0,0,0,0,0,0,0,1
A3AKVPH9D7LOXD:3W2LOLRXLCTPVDLNQR0FYBVNRGURKL,female,29,2,5,92,19,43,100,25,18,76,57,36,81,65,57,62,74,85,66,87,65,69,88,,,,,,,,,64,73,80,84,89,56,84,55,,,,,,,,,77,87,34,69,73,89,93,85,,,,,,,,,36,72,61,70,31,73,46,29,,,,,,,,,3,0,0,0,0,0,0,0,0,0,0,0,0,0,0,0,0,0,0,0,1
A1FKUZN5M2FSOP:37W3JXSD67MPNERQT0BCUIIFFZ8WYQ,male,55,3,5,92,0,0,93,48,48,56,47,19,64,40,48,52,61,56,64,66,62,59,54,,,,,,,,,74,66,53,66,77,71,62,54,,,,,,,,,52,59,70,77,56,73,64,54,,,,,,,,,57,69,80,69,50,62,53,64,,,,,,,,,3,0,0,0,0,0,0,0,0,0,0,0,0,0,0,0,0,0,0,0,1
A3FR3U01EFKGX2:35L9RVQFCPWQ9FCWO0SNQU2F4J8HUT,male,38,3,4,91,75,75,93,88,72,58,72,54,91,71,82,71,89,91,58,74,73,83,95,,,,,,,,,77,58,78,87,88,74,60,92,,,,,,,,,90,65,88,87,72,76,78,91,,,,,,,,,87,94,83,69,81,80,58,67,,,,,,,,,3,0,0,0,0,0,0,0,0,0,0,0,0,0,0,0,0,0,0,0,0
A1LK5IC4SKG5J7:3OWEPKL08AQGL0MBEQUPLMLRJC07NR,male,29,3,12,91,40,37,99,74,47,69,90,68,48,75,56,69,90,83,58,85,93,75,72,,,,,,,,,69,93,65,87,46,86,87,72,,,,,,,,,53,66,88,85,94,66,57,81,,,,,,,,,92,69,58,81,72,57,47,26,,,,,,,,,3,0,0,0,0,0,0,0,0,0,0,0,0,0,0,0,0,0,0,0,0
A2I6ZALE49CVSC:3BGYGHDBBYYDAD0CMVFAX71LXS022A,male,28,3,10,91,9,83,5,70,67,82,36,13,51,17,22,47,66,46,50,50,26,71,28,,,,,,,,,61,70,53,21,46,57,31,27,,,,,,,,,67,21,39,27,47,23,79,42,,,,,,,,,48,26,54,20,34,30,45,52,,,,,,,,,3,0,0,0,0,0,0,0,0,0,0,0,0,0,0,0,0,0,0,1,0
A30Y3H3UJ9QKWV:31UV0MXWNRQ9KVX1TH20IUBE5J3I5M,male,25,3,14,90,9,18,90,74,66,79,12,5,13,3,8,58,56,48,59,56,61,50,54,,,,,,,,,51,49,46,48,50,50,50,50,,,,,,,,,49,64,41,62,60,63,47,49,,,,,,,,,51,57,44,51,51,56,51,50,,,,,,,,,3,0,0,0,0,0,0,0,0,0,0,0,0,0,0,0,0,0,0,1,0
A3HDZZJ0867FP9:3SNLUL3WO51SVBVMFL7LIMVMNF5LUO,female,28,3,7,90,42,53,66,65,44,26,68,15,74,18,34,22,40,28,57,55,63,73,44,,,,,,,,,52,41,55,28,13,26,59,23,,,,,,,,,60,68,35,26,39,18,45,57,,,,,,,,,34,71,58,37,54,69,42,45,,,,,,,,,3,0,0,0,0,0,0,0,0,0,0,0,0,0,0,0,0,0,0,1,1
A3GK90X2QOFR53:3LRKMWOKB6V3GO3OB2OOKIBSIAM2ZN,male,33,2,1,90,12,18,79,47,48,21,52,0,23,0,25,40,79,29,75,41,74,41,42,,,,,,,,,57,55,56,54,74,55,59,54,,,,,,,,,54,61,36,55,42,65,43,74,,,,,,,,,57,48,74,42,56,56,59,44,,,,,,,,,3,0,0,0,0,0,0,0,0,0,0,0,0,0,0,0,0,0,0,0,1
A1RFA3ASEGMLBJ:3X0H8UUIT22SRSFHUUJNCWUEZ1YWS9,female,33,6,2,89,72,89,85,82,85,62,13,70,69,67,78,89,78,80,95,81,93,93,74,,,,,,,,,90,73,80,89,88,91,93,74,,,,,,,,,95,92,95,80,87,90,90,65,,,,,,,,,69,85,67,94,82,82,77,54,,,,,,,,,3,0,0,0,0,0,0,0,0,0,0,0,0,0,0,0,0,0,0,1,0
A1PTH9KTRO06EG:3Q5ZZ9ZEVPTGVPLOKVQ955H03B658M,male,25,3,14,87,1,2,96,20,9,23,79,21,74,74,97,69,85,82,81,85,85,71,56,,,,,,,,,96,84,71,83,85,99,70,85,,,,,,,,,70,84,59,92,83,84,67,57,,,,,,,,,86,72,80,57,86,86,84,55,,,,,,,,,3,0,0,0,0,0,0,0,0,0,0,0,0,0,0,0,0,0,0,1,0
A11Q8U6QTT8KGF:3QEMNNSB2YD7ZOVYPWGMPH9X4GHD7D,male,40,3,3,87,0,2,90,49,59,42,58,13,64,44,42,41,47,41,40,44,41,52,45,,,,,,,,,59,53,52,50,43,59,50,35,,,,,,,,,56,53,25,50,44,64,60,46,,,,,,,,,76,65,53,68,42,75,57,40,,,,,,,,,3,0,0,0,0,0,0,0,0,0,0,0,0,0,0,0,0,0,0,1,1
A17K1CHOI773VZ:3Z7VU45IPZVWR3LSSYOAFZ1NQVL1Z0,male,31,2,4,87,2,14,86,50,23,73,47,3,25,24,50,65,58,71,50,70,54,42,40,,,,,,,,,44,60,42,32,53,84,72,70,,,,,,,,,85,79,41,65,72,63,72,77,,,,,,,,,42,72,69,65,56,44,71,50,,,,,,,,,3,0,0,0,0,0,0,0,0,0,0,0,0,0,0,0,0,0,0,0,0
A277UVT82WHF65:3JCG6DTRV44BUF4IQHVCP7XRTDJQQZ,male,38,1,14,86,0,1,91,50,74,60,40,62,43,47,37,60,79,61,83,51,76,73,78,,,,,,,,,68,69,60,74,74,65,44,57,,,,,,,,,61,70,51,76,54,75,28,59,,,,,,,,,63,44,53,65,35,59,19,28,,,,,,,,,3,0,0,0,0,0,0,0,0,0,0,0,0,0,0,0,0,0,0,1,0
A21X9A778AFCFV:36DSNE9QZ6CRNGNPGEJZ31Q5ZSNJOS,male,28,5,3,86,25,15,81,76,48,49,75,50,48,48,48,41,56,41,41,41,41,41,41,,,,,,,,,52,57,54,42,56,41,41,42,,,,,,,,,41,55,42,41,43,57,41,42,,,,,,,,,57,56,40,41,42,57,57,41,,,,,,,,,3,0,0,0,0,0,0,0,0,0,0,0,0,0,0,0,0,0,0,1,1
A383WPMTMRQEA0:3PB5A5BD0WKAB85PRMHUV2CUI0E7GJ,female,27,3,9,86,2,2,98,76,48,28,36,22,75,23,20,24,33,20,38,26,37,24,23,,,,,,,,,59,70,,61,57,69,70,69,,N/A,,,,,,,40,30,13,30,40,37,23,20,,,,,,,,,66,63,,49,51,76,62,50,,N/A,,,,,,,3,0,0,0,1,1,0,0,0,0,1,1,0,0,0,0,0,0,0,0,1
A2N70I5PPCOJMK:30LSNF239V9HLYEEBY02KN82NKPI2M,male,27,5,10,85,66,85,84,78,100,75,75,85,66,76,93,73,85,86,85,89,70,70,71,,,,,,,,,84,77,70,69,68,85,72,88,,,,,,,,,73,91,88,98,56,71,88,75,,,,,,,,,72,88,73,84,70,87,88,67,,,,,,,,,3,0,0,0,0,0,0,0,0,0,0,0,0,0,0,0,0,0,0,1,0
AEKP72I9TAOT:3NQL1CS15SMC8PRL3Q6G8GZ19DSYVF,male,37,3,9,85,53,78,52,64,71,29,40,15,3,0,10,29,36,20,45,33,21,32,55,,,,,,,,,29,34,20,65,60,50,36,42,,,,,,,,,13,12,25,11,19,16,15,51,,,,,,,,,10,20,46,10,22,38,12,39,,,,,,,,,3,0,0,0,0,0,0,0,0,0,0,0,0,0,0,0,0,0,0,0,1
A2V4DP31BEVABF:3DUZQ9U6SN2FC3FC4KERQUB0STESVF,male,34,5,11,85,11,9,81,60,60,23,77,77,60,53,72,30,43,19,25,25,35,26,29,,,,,,,,,47,46,25,51,45,29,28,50,,,,,,,,,55,70,28,70,39,55,70,54,,,,,,,,,36,56,20,72,34,37,72,72,,,,,,,,,3,0,0,0,0,0,0,0,0,0,0,0,0,0,0,0,0,0,0,1,1
A317IYV73NEULV:3FE7TXL1LJ1U2W2XO65BTPZOD70Q2G,male,62,6,12,84,81,86,89,84,55,84,73,72,92,74,78,66,74,83,92,84,91,90,84,,,,,,,,,64,80,68,85,90,87,73,80,,,,,,,,,69,86,89,88,91,85,78,76,,,,,,,,,67,84,84,58,68,76,83,83,,,,,,,,,3,0,0,0,0,0,0,0,0,0,0,0,0,0,0,0,0,0,0,0,0
A2QBFXY9UQMJTT:3WAKVUDHUXUTGQ6KBR6BZHDLSVY7UZ,male,38,3,15,84,5,3,87,60,48,48,26,20,27,20,29,17,14,5,19,15,15,13,12,,,,,,,,,,,,,,,,,N/A,N/A,N/A,N/A,N/A,N/A,N/A,N/A,22,20,7,24,23,23,24,7,,,,,,,,,,,,,,,,,N/A,N/A,N/A,N/A,N/A,N/A,N/A,N/A,3,0,0,0,8,4,4,0,0,0,8,4,4,0,0,0,0,0,0,1,1
A3A5HB09DJCLQS:3K4J6M3CXF7SUA3NYPTE5TEKKVPAGT,female,47,3,2,83,71,70,84,75,87,75,91,97,88,81,89,81,90,81,91,82,82,88,90,,,,,,,,,83,87,89,91,78,81,90,84,,,,,,,,,89,88,79,90,70,82,88,69,,,,,,,,,83,88,89,80,78,93,75,84,,,,,,,,,3,0,0,0,0,0,0,0,0,0,0,0,0,0,0,0,0,0,0,1,0
A1QWB22PR3CG8N:34HJIJKLP6AWAID1EJI9SRVUEDBV4B,male,29,5,8,83,17,20,80,76,60,70,25,26,10,32,21,45,24,68,27,24,25,69,24,,,,,,,,,41,26,54,26,55,32,56,30,,,,,,,,,57,40,71,26,39,42,63,32,,,,,,,,,57,42,41,28,22,40,57,41,,,,,,,,,3,0,0,0,0,0,0,0,0,0,0,0,0,0,0,0,0,0,0,0,0
A3CB76BLS1D9KF:3R5F3LQFV3YHNVSTY0MLRVEVIQ0OZI,male,28,5,11,80,86,52,81,76,96,75,52,75,74,49,77,59,67,54,56,67,77,77,64,,,,,,,,,87,69,62,68,89,87,73,67,,,,,,,,,70,76,72,71,57,86,81,83,,,,,,,,,69,86,97,71,72,66,74,97,,,,,,,,,3,0,0,0,0,0,0,0,0,0,0,0,0,0,0,0,0,0,0,1,1
A2541C8MY0BYV3:37W3JXSD67MPNERQT0BCUIIFGEPWY2,male,29,3,0,80,31,42,71,36,18,76,0,0,1,0,0,4,48,4,19,1,24,1,0,,,,,,,,,9,32,20,23,16,56,32,0,,,,,,,,,0,1,2,12,1,24,2,0,,,,,,,,,2,13,0,29,0,28,0,1,,,,,,,,,3,0,0,0,0,0,0,0,0,0,0,0,0,0,0,0,0,0,0,0,0
A12A93TVURLNRF:3HRMW88U174WL71RHQUGTSM468K0MK,female,32,3,0,78,75,86,76,69,83,73,93,86,65,83,78,78,79,78,74,65,78,87,81,,,,,,,,,93,79,84,78,70,85,69,79,,,,,,,,,82,83,83,71,70,67,71,86,,,,,,,,,79,89,90,77,78,77,90,91,,,,,,,,,3,0,0,0,0,0,0,0,0,0,0,0,0,0,0,0,0,0,0,0,0
A3B194B8KSPTNP:3DQQ64TANHZVE0ZP2DFTHRP3CI9PW6,male,28,6,1,77,85,71,82,74,58,82,78,59,80,75,74,87,74,70,71,83,68,84,89,,,,,,,,,86,69,69,86,73,87,73,69,,,,,,,,,86,72,69,87,85,90,86,70,,,,,,,,,70,70,71,71,81,86,98,83,,,,,,,,,3,0,0,0,0,0,0,0,0,0,0,0,0,0,0,0,0,0,0,0,1
A5GBRP3CRKJSF:3LUY3GC630EGOLYOU57HPBQMJIDP7Z,male,28,6,6,77,91,75,89,65,83,69,81,68,85,57,63,69,88,78,71,60,85,73,82,,,,,,,,,77,82,72,41,88,69,55,81,,,,,,,,,86,79,78,86,84,77,85,76,,,,,,,,,82,70,87,82,84,64,79,63,,,,,,,,,3,0,0,0,0,0,0,0,0,0,0,0,0,0,0,0,0,0,0,1,0
A15CQ19I1V6V0J:3OUYGIZWR8C26AY496M8AWGZAODP08,male,28,5,1,77,82,68,84,70,85,57,69,77,57,69,82,61,67,75,81,73,82,58,59,,,,,,,,,83,60,70,74,77,69,75,81,,,,,,,,,72,70,78,64,88,59,80,77,,,,,,,,,66,84,66,49,68,73,56,55,,,,,,,,,3,0,0,0,0,0,0,0,0,0,0,0,0,0,0,0,0,0,0,0,1
A25LXRZ7HED8RM:37UQDCYH6Y9TT5VKGHGGV3F45F1V7V,male,30,3,5,76,67,70,66,60,56,64,48,17,43,43,47,46,62,47,58,54,59,47,58,,,,,,,,,57,65,49,62,54,62,52,47,,,,,,,,,45,58,53,62,41,54,57,54,,,,,,,,,61,52,48,57,62,51,58,55,,,,,,,,,3,0,0,0,0,0,0,0,0,0,0,0,0,0,0,0,0,0,0,0,1
A2R7YCDDDYIFE:3TMSXRD2X7ESX8GNHB43GV758BZW1M,female,30,4,12,76,47,50,76,25,33,43,11,18,11,23,21,70,56,66,51,55,60,51,44,,,,,,,,,68,68,66,51,64,66,72,47,,,,,,,,,63,58,66,48,55,59,63,46,,,,,,,,,35,74,63,61,61,38,47,52,,,,,,,,,3,0,0,0,0,0,0,0,0,0,0,0,0,0,0,0,0,0,0,0,0
A3CH1Z6J9R38G9:3R0T90IZ1TQGNP0LI3P5BO48KYACGX,male,31,2,11,75,19,20,82,29,35,28,61,42,50,50,22,81,77,82,81,58,75,50,72,,,,,,,,,79,66,75,71,77,67,80,72,,,,,,,,,73,63,78,62,72,64,79,71,,,,,,,,,86,64,75,77,65,69,58,52,,,,,,,,,3,0,0,0,0,0,0,0,0,0,0,0,0,0,0,0,0,0,0,1,1
A11YEGD0RQ9AF9:386PBUZZXGBJHVKS3M37BKMB5CTLJ3,male,29,1,15,75,55,82,66,66,44,87,58,54,64,34,79,80,76,64,69,86,91,79,45,,,,,,,,,75,57,47,72,82,54,36,72,,,,,,,,,39,68,62,51,65,80,73,71,,,,,,,,,84,56,69,70,52,26,53,83,,,,,,,,,3,0,0,0,0,0,0,0,0,0,0,0,0,0,0,0,0,0,0,1,1
A30OGUUF0L3NLZ:3YGXWBAF71V0B971N2N42Z75TX94CH,male,28,5,14,74,90,61,92,75,88,76,83,84,54,88,66,89,66,92,58,76,61,77,90,,,,,,,,,68,93,73,85,57,60,93,90,,,,,,,,,73,70,89,96,61,91,95,73,,,,,,,,,73,87,50,90,89,83,70,67,,,,,,,,,3,0,0,0,0,0,0,0,0,0,0,0,0,0,0,0,0,0,0,1,0
A7N3J27F3IL6M:3HL8HNGX46F8BRXNVZ9WRD3ODY7F9K,male,31,3,0,74,9,0,83,76,47,46,73,41,67,27,58,29,29,22,61,19,26,70,6,,,,,,,,,34,16,34,48,16,9,73,9,,,,,,,,,24,66,58,24,69,48,58,14,,,,,,,,,12,40,29,52,15,29,77,5,,,,,,,,,3,0,0,0,0,0,0,0,0,0,0,0,0,0,0,0,0,0,0,0,0
A1S5WQ5IB8IHJL:3X4MXAO0BH2GQDF4F5JIMMPICBGWR9,male,55,3,4,70,83,87,62,52,81,61,80,77,89,51,88,71,86,88,57,86,71,86,73,,,,,,,,,87,91,70,73,78,74,92,26,,,,,,,,,70,58,85,88,70,78,72,89,,,,,,,,,69,73,59,81,68,80,87,85,,,,,,,,,3,0,0,0,0,0,0,0,0,0,0,0,0,0,0,0,0,0,0,0,0
AK77EA1UZ8KJG:3A9AA95ATX011HK56CSKRRCQSCIP5K,male,23,4,2,69,79,47,84,38,68,88,25,20,43,43,40,63,69,17,79,74,75,82,69,,,,,,,,,81,76,61,44,42,13,55,68,,,,,,,,,55,71,82,78,13,29,69,64,,,,,,,,,65,74,55,72,31,27,89,59,,,,,,,,,3,0,0,0,0,0,0,0,0,0,0,0,0,0,0,0,0,0,0,1,0
A7P3R1AIA4TVV:39GXDJN2OUSXTJ03QM8M93BZGZCV8N,male,36,3,11,69,9,13,86,100,75,76,0,2,2,2,0,29,57,26,53,57,56,57,56,,,,,,,,,26,55,46,56,28,58,54,56,,,,,,,,,28,57,67,44,31,55,57,54,,,,,,,,,10,57,39,56,12,59,57,59,,,,,,,,,3,0,0,0,0,0,0,0,0,0,0,0,0,0,0,0,0,0,0,1,1
ASXNA04AP6W4U:323Q6SJS8JU1QXF6TBXO4U1CUZSHFZ,female,37,4,9,69,84,61,84,72,53,86,61,81,72,56,96,69,55,46,81,64,81,64,32,,,,,,,,,73,85,53,69,69,84,58,85,,,,,,,,,77,85,84,62,45,85,59,67,,,,,,,,,81,60,52,85,53,71,71,52,,,,,,,,,3,0,0,0,0,0,0,0,0,0,0,0,0,0,0,0,0,0,0,0,1
A3388HIWAKD3DV:3WS1NTTKEZQQFX9AV3Q3Y22V9780FD,na,29,1,6,68,50,2,4,42,30,70,82,4,0,2,32,52,61,79,23,19,81,40,92,,,,,,,,,31,95,53,54,79,13,67,8,,,,,,,,,83,59,76,4,45,32,84,9,,,,,,,,,59,30,14,65,2,49,77,24,,,,,,,,,3,0,0,0,0,0,0,0,0,0,0,0,0,0,0,0,0,0,0,1,0
A1D9ZWU1M46SAF:3TPZPLC3M1QYN2X1ST4RCUE6D0XP33,male,37,2,6,68,31,15,84,73,72,26,24,1,5,0,19,46,57,61,60,55,59,55,55,,,,,,,,,33,38,31,30,37,32,38,26,,,,,,,,,29,61,49,46,53,42,51,48,,,,,,,,,52,39,30,41,30,45,31,27,,,,,,,,,3,0,0,0,0,0,0,0,0,0,0,0,0,0,0,0,0,0,0,1,0
AG9LMLEPXP2YC:3M1CVSFP61JJ7ZX11LYQZ7IMO4SQA4,male,26,3,6,68,66,50,49,43,47,70,39,18,71,20,60,58,60,60,61,38,27,53,52,,,,,,,,,55,41,54,47,59,47,43,41,,,,,,,,,64,64,64,57,40,46,50,58,,,,,,,,,43,65,49,72,45,58,51,61,,,,,,,,,3,0,0,0,0,0,0,0,0,0,0,0,0,0,0,0,0,0,0,1,0
A2YVC1U50H2B4R:39KFRKBFIO9HI5IO2EK2DO5TE8JOY4,female,31,2,1,68,17,17,80,50,13,19,3,2,3,3,3,64,63,71,39,,42,69,38,,,N/A,,,,,,67,56,73,34,,55,70,26,,,N/A,,,,,,55,57,73,26,,59,73,12,,,N/A,,,,,,13,42,66,41,,,69,10,,,N/A,,,,N/A,,3,1,1,0,1,1,0,1,1,0,2,1,1,0,0,0,1,0,1,0,1
A3K0YRCSOMX845:34HJIJKLP6AWAID1EJI9SRVUDLV4VJ,male,56,3,10,67,84,72,83,55,63,75,70,64,82,65,78,71,98,70,67,57,61,71,93,,,,,,,,,66,55,60,69,77,59,79,68,,,,,,,,,87,67,59,79,76,89,57,79,,,,,,,,,77,76,68,84,64,63,87,88,,,,,,,,,3,0,0,0,0,0,0,0,0,0,0,0,0,0,0,0,0,0,0,1,0
A1ERVCHV5QQL66:3WQQ9FUS6B8IK52XL5HM8RHSD6AB89,male,55,1,6,67,82,65,83,74,87,82,82,64,85,63,79,69,70,85,76,68,88,82,67,,,,,,,,,84,76,63,57,80,66,72,57,,,,,,,,,59,78,78,68,64,78,81,66,,,,,,,,,78,76,55,84,88,69,90,69,,,,,,,,,3,0,0,0,0,0,0,0,0,0,0,0,0,0,0,0,0,0,0,1,0
A2DSIGP6XAVTAT:3SNVL38CI56LPBW48UAK9GW1RFRCK0,male,44,1,8,67,66,99,32,51,24,48,51,49,58,63,64,59,64,57,61,57,60,63,63,,,,,,,,,68,75,61,79,58,77,76,86,,,,,,,,,42,64,30,59,42,65,65,42,,,,,,,,,51,60,59,71,63,67,76,65,,,,,,,,,3,0,0,0,0,0,0,0,0,0,0,0,0,0,0,0,0,0,0,0,0
A3RLYKLRIXDM6Y:33CID5710578WHI301BKVD5M8R63LV,male,39,7,13,67,47,67,48,64,47,47,37,11,34,54,41,58,45,56,43,45,70,64,54,,,,,,,,,59,39,61,67,44,56,,51,,,,N/A,,,,,55,55,49,41,67,70,42,55,,,,,,,,,54,55,52,56,41,39,59,55,,,,,,,,,3,0,0,0,1,1,0,0,0,0,0,0,0,0,0,0,-1,-1,0,0,1
A1HFPDHBLO6KZW:3YT88D1N09CXCB0LF1ZJGDS7L2EK3A,female,48,7,14,67,100,65,100,74,61,100,24,0,23,49,0,42,41,40,41,41,40,40,41,,,,,,,,,69,70,70,68,71,70,71,71,,,,,,,,,13,27,0,13,25,43,43,56,,,,,,,,,40,48,41,40,41,42,41,56,,,,,,,,,3,0,0,0,0,0,0,0,0,0,0,0,0,0,0,0,0,0,0,1,0
A1QC1K71RGKZBI:3TR2532VIQ81YAHLGIX5M14EF8O6JI,female,70,1,15,66,0,2,87,78,46,67,93,4,9,25,0,99,97,55,70,100,98,97,87,,,,,,,,,84,81,35,68,85,85,92,72,,,,,,,,,94,97,70,45,66,86,96,72,,,,,,,,,97,98,70,55,69,67,92,73,,,,,,,,,3,0,0,0,0,0,0,0,0,0,0,0,0,0,0,0,0,0,0,1,1
A2D9ZZDR43R34Q:3JJVG1YBECBZXNJVN7AJW771BG9B57,male,27,5,10,66,15,86,31,76,45,74,77,51,23,73,74,28,70,57,87,42,43,57,79,,,,,,,,,40,41,84,57,56,71,70,69,,,,,,,,,85,84,41,70,69,56,56,42,,,,,,,,,42,82,55,40,70,84,43,71,,,,,,,,,3,0,0,0,0,0,0,0,0,0,0,0,0,0,0,0,0,0,0,1,0
AZ5USSNKZI3Y1:3RRCEFRB7NQH14FV92R9RF1NBC94BA,female,50,1,12,66,70,96,33,50,36,71,20,42,40,28,4,53,29,95,17,19,30,19,16,,,,,,,,,23,39,97,44,82,22,19,31,,,,,,,,,47,41,98,13,98,27,49,26,,,,,,,,,25,11,97,13,26,53,25,93,,,,,,,,,3,0,0,0,0,0,0,0,0,0,0,0,0,0,0,0,0,0,0,0,0
AQ1PTX596CKUH:3DEL4X4EL7Z4CEWG357YW1WMPO0YXI,male,35,3,11,66,31,31,81,99,97,1,3,3,3,1,3,10,27,12,12,,12,11,,,,N/A,,,,,N/A,,27,,11,,10,13,11,N/A,N/A,N/A,,,,,,11,12,,26,13,,14,,,N/A,,,,,N/A,N/A,,,11,,,,12,12,N/A,,N/A,,N/A,N/A,N/A,,3,2,1,1,3,3,0,3,1,2,5,2,3,1,0,1,2,-1,3,1,1
A1GKD3NG1NNHRP:3KV0LJBBH3ZKL1LQB3DVDONRGLPRMQ,female,60,1,12,65,71,67,74,69,37,23,21,1,4,9,12,64,60,59,61,59,63,64,60,,,,,,,,,60,63,60,63,65,64,59,63,,,,,,,,,61,62,76,64,60,70,73,59,,,,,,,,,42,55,59,56,41,62,58,42,,,,,,,,,3,0,0,0,0,0,0,0,0,0,0,0,0,0,0,0,0,0,0,0,0
A3A0RP6IUR41PP:308Q0PEVB9RSLIZDW7FHUAGGTQZI9E,male,30,3,12,64,68,55,58,79,71,61,60,52,77,85,58,75,74,72,87,77,83,84,73,,,,,,,,,85,85,75,78,71,79,78,84,,,,,,,,,81,81,86,82,58,81,75,77,,,,,,,,,81,77,86,72,88,80,84,88,,,,,,,,,3,0,0,0,0,0,0,0,0,0,0,0,0,0,0,0,0,0,0,0,0
A1KZVWLKGOZOSX:31QTRG6Q2URZ35UPHEXH2OAJNQ9PY5,female,35,5,1,63,51,76,61,69,52,79,73,45,77,57,77,79,54,59,80,53,80,74,62,,,,,,,,,79,47,58,81,78,55,77,61,,,,,,,,,55,77,81,56,76,76,47,59,,,,,,,,,82,50,57,77,81,55,61,85,,,,,,,,,3,0,0,0,0,0,0,0,0,0,0,0,0,0,0,0,0,0,0,0,1
A2Y7RA3JIQXV6M:34S9DKFK743Z0KIC1ZKPYZ5OMN0YNX,female,29,2,10,62,48,49,65,27,50,77,74,83,49,75,73,71,55,67,67,68,83,80,81,,,,,,,,,62,54,73,58,84,77,57,62,,,,,,,,,65,84,42,60,71,58,81,73,,,,,,,,,71,84,63,80,70,55,71,42,,,,,,,,,3,0,0,0,0,0,0,0,0,0,0,0,0,0,0,0,0,0,0,1,0
A6VUKG6YF3M54:3PEIJLRY6U70N91GO4PAB4B6E8VWXW,male,63,5,5,61,72,99,93,77,79,95,38,1,21,9,36,46,37,34,38,40,26,45,42,,,,,,,,,48,42,49,38,39,50,41,28,,,,,,,,,40,34,44,49,40,54,44,58,,,,,,,,,41,40,50,43,44,46,46,29,,,,,,,,,3,0,0,0,0,0,0,0,0,0,0,0,0,0,0,0,0,0,0,0,1
A25D8MUZP7CQEY:3PS7W85Z80GIUWFOQJEL8HIP2VTT9U,male,23,5,0,60,14,32,22,20,22,15,20,4,9,9,16,77,86,83,81,82,80,81,82,,,,,,,,,87,85,87,65,79,82,83,83,,,,,,,,,84,86,85,85,85,85,84,85,,,,,,,,,86,86,85,55,86,87,86,66,,,,,,,,,3,0,0,0,0,0,0,0,0,0,0,0,0,0,0,0,0,0,0,0,0
A3F3YP2Q7D4JE5:37WLF8U1WQ4W9UN3Y3XHNG4RUXO6KH,male,46,3,10,59,77,62,79,65,76,94,47,68,68,81,33,47,75,39,72,78,42,62,90,,,,,,,,,68,19,62,38,31,32,82,62,,,,,,,,,42,85,68,77,78,82,55,43,,,,,,,,,79,64,31,65,39,37,15,70,,,,,,,,,3,0,0,0,0,0,0,0,0,0,0,0,0,0,0,0,0,0,0,1,0
A18XN5P1ED4EM1:3KKG4CDWKJCYDB0YBIDD096XNC6490,male,28,3,5,52,70,56,72,57,57,42,68,42,74,58,85,32,58,68,37,37,42,62,67,,,,,,,,,41,27,65,70,63,47,69,48,,,,,,,,,26,74,47,28,71,54,82,72,,,,,,,,,56,21,47,67,39,77,88,43,,,,,,,,,3,0,0,0,0,0,0,0,0,0,0,0,0,0,0,0,0,0,0,0,1
A2X295K4FFKJ8I:31HQ4X3T3TOCGY3IQGCL3LDY07ISLP,female,28,5,0,52,36,56,43,67,49,74,46,73,49,74,51,59,43,63,42,71,69,57,36,,,,,,,,,43,58,63,59,66,49,53,40,,,,,,,,,57,42,59,58,52,58,42,57,,,,,,,,,66,52,38,50,45,38,59,57,,,,,,,,,3,0,0,0,0,0,0,0,0,0,0,0,0,0,0,0,0,0,0,0,0
A2OD8TU5T3RYWY:3A4TN5196LWUNLVW297NWOG9ZYNCHW,male,30,6,0,49,78,63,82,41,77,55,61,86,57,36,71,68,86,43,53,69,60,46,86,,,,,,,,,52,50,39,74,35,64,75,56,,,,,,,,,54,60,21,76,48,74,77,48,,,,,,,,,70,82,61,49,52,38,73,56,,,,,,,,,3,0,0,0,0,0,0,0,0,0,0,0,0,0,0,0,0,0,0,0,0
A1TEDLODCG1G3G:3TK8OJTYM2ZIZBZKC3AXVP6P597PVW,male,26,4,13,48,25,11,72,65,15,49,30,65,41,55,59,69,20,52,30,56,60,22,67,,,,,,,,,57,52,71,67,81,53,82,17,,,,,,,,,41,22,14,39,34,56,64,40,,,,,,,,,82,60,12,36,34,58,39,67,,,,,,,,,3,0,0,0,0,0,0,0,0,0,0,0,0,0,0,0,0,0,0,0,1
A368GZDFSP6FLO:3RGU30DZTBM3ND2D3Y4MBX104S8JMD,female,31,3,2,46,14,23,70,59,41,71,71,45,66,50,73,57,44,66,36,,41,77,55,,,N/A,,,,,,48,30,49,66,21,47,80,78,,,,,,,,,56,60,32,39,62,69,38,46,,,,,,,,,36,46,26,75,60,39,26,40,,,,,,,,,3,1,1,0,0,0,0,0,0,0,0,0,0,-1,-1,0,0,0,0,1,0
A1VGQQPI02FE31:3KGTPGBS6YZMUP9E5FPG3QWDF3PU2T,male,40,5,7,45,70,45,67,54,37,57,42,61,40,59,47,52,67,38,29,42,59,61,40,,,,,,,,,38,55,53,54,35,64,60,27,,,,,,,,,70,55,46,36,33,29,54,55,,,,,,,,,32,42,38,57,59,44,64,55,,,,,,,,,3,0,0,0,0,0,0,0,0,0,0,0,0,0,0,0,0,0,0,1,1
A35O3H71CM4LVZ:30ZX6P7VF99DG9YKTGL2WON2YKS2J0,male,39,3,15,45,0,8,47,49,51,48,0,8,14,10,8,39,28,39,38,8,25,39,29,,,,,,,,,40,43,40,29,8,9,44,14,,,,,,,,,44,43,44,44,26,25,45,23,,,,,,,,,8,10,48,43,6,40,37,40,,,,,,,,,3,0,0,0,0,0,0,0,0,0,0,0,0,0,0,0,0,0,0,1,1
A18ST05BTABPGC:3U8YCDAGXQUN6MZJ9J1XA169G9GQ0W,male,26,6,15,44,73,45,80,48,74,49,100,49,73,29,60,40,86,42,71,70,71,86,85,,,,,,,,,70,86,42,58,69,46,85,90,,,,,,,,,59,72,86,56,56,86,85,41,,,,,,,,,42,72,41,71,57,86,94,73,,,,,,,,,3,0,0,0,0,0,0,0,0,0,0,0,0,0,0,0,0,0,0,1,1
A3HZFB2JLF3JMY:3JZQSN0I3RONQ1KV95F6JUPBGNFGFC,male,32,6,0,44,76,64,50,80,49,81,56,33,55,37,67,72,53,43,65,49,63,54,54,,,,,,,,,54,61,41,48,33,45,46,62,,,,,,,,,69,58,44,50,45,48,58,43,,,,,,,,,37,36,52,43,58,57,59,62,,,,,,,,,3,0,0,0,0,0,0,0,0,0,0,0,0,0,0,0,0,0,0,0,0
A990YVIY66UNS:3Z2R0DQ0JIS55TCSFFABZ8AATG5E28,female,45,7,1,40,53,43,31,53,47,64,51,18,28,46,55,45,51,66,54,51,72,,51,,,,N/A,,,,,66,,68,,62,48,44,42,,,,,N/A,N/A,,,53,50,60,42,55,53,45,59,,,,,,,,,55,59,,48,45,48,63,45,,N/A,,,,,,,3,1,1,0,2,0,2,0,0,0,1,1,0,-1,-1,0,-1,1,-2,0,1
A1F1BIPJR11LSR:36W0OB37HXS7VE66UNRV7MHU8G9HZ0,na,34,3,3,40,67,75,30,40,47,37,48,38,53,60,52,43,32,41,36,38,44,40,44,,,,,,,,,79,67,69,79,74,75,64,86,,,,,,,,,64,62,60,70,63,59,68,66,,,,,,,,,45,55,53,61,63,38,42,56,,,,,,,,,3,0,0,0,0,0,0,0,0,0,0,0,0,0,0,0,0,0,0,1,1
A11TPUPFP2S4MK:3X4MXAO0BH2GQDF4F5JIMMPIDZFWRL,male,37,5,1,37,49,43,30,60,19,17,34,5,16,6,10,52,41,74,55,45,44,67,57,,,,,,,,,69,55,72,69,57,62,67,60,,,,,,,,,52,47,52,61,29,40,67,45,,,,,,,,,43,65,85,67,44,40,68,51,,,,,,,,,3,0,0,0,0,0,0,0,0,0,0,0,0,0,0,0,0,0,0,0,1
A3N501UIQ965BA:3O6CYIULEEF8657LJZENRXC2JAKWUD,male,24,3,5,34,55,29,71,37,64,41,29,58,39,77,42,63,68,36,43,31,30,56,68,,,,,,,,,68,34,68,69,35,67,41,44,,,,,,,,,50,32,60,64,39,68,39,61,,,,,,,,,68,42,70,54,76,48,79,35,,,,,,,,,3,0,0,0,0,0,0,0,0,0,0,0,0,0,0,0,0,0,0,0,1
A1ZARWV5I997YJ:386CSBG1O00IKXLYB8HEJ2G0TC2Q6X,male,26,5,6,28,51,75,43,47,28,61,75,57,43,26,62,43,55,26,26,57,37,78,76,,,,,,,,,80,57,57,85,76,40,67,35,,,,,,,,,78,82,48,19,30,61,41,22,,,,,,,,,17,73,48,83,81,32,56,54,,,,,,,,,3,0,0,0,0,0,0,0,0,0,0,0,0,0,0,0,0,0,0,1,0
A2RS9H7YA510V4:30BXRYBRP5B31J11J07O8INCPZJHWS,female,29,5,5,22,40,42,34,25,14,13,89,61,63,86,85,85,89,35,79,92,91,60,80,,,,,,,,,83,94,54,91,78,43,79,89,,,,,,,,,42,87,56,68,77,94,80,80,,,,,,,,,48,88,90,89,73,70,81,73,,,,,,,,,3,0,0,0,0,0,0,0,0,0,0,0,0,0,0,0,0,0,0,0,1
ABQ4JY52NCREZ:3VD82FOHKR24F2HJ6M2DGXDA96SOCT,male,38,3,15,21,82,83,29,70,60,21,14,1,3,4,9,47,48,61,47,49,47,56,48,,,,,,,,,30,29,41,32,30,30,29,32,,,,,,,,,33,32,36,25,26,28,30,33,,,,,,,,,42,46,71,42,41,41,71,72,,,,,,,,,3,0,0,0,0,0,0,0,0,0,0,0,0,0,0,0,0,0,0,1,1
A3S0AE3XOFNXDJ:3DIP6YHAPD6GR8EHVWJC9ZNDG3N8E6,female,33,4,12,18,72,79,20,52,59,42,65,56,61,32,59,37,43,60,53,53,48,55,55,,,,,,,,,49,56,39,59,57,46,34,66,,,,,,,,,41,44,54,56,47,52,64,49,,,,,,,,,54,65,40,67,52,58,47,57,,,,,,,,,3,0,0,0,0,0,0,0,0,0,0,0,0,0,0,0,0,0,0,0,0
A25DFKT5NQWY68:3O7L7BFSHF39GEQU4IV3MOHRJ0FEI9,female,25,5,0,13,91,89,25,53,76,87,82,16,73,6,14,80,91,43,91,76,33,66,58,,,,,,,,,91,79,56,86,53,70,81,60,,,,,,,,,84,93,91,88,67,67,75,38,,,,,,,,,84,94,75,84,73,81,74,62,,,,,,,,,3,0,0,0,0,0,0,0,0,0,0,0,0,0,0,0,0,0,0,0,0
A258ZJM0HU1OR3:3H7Z272LX8LF36NQYZ8R8G8NDMOLPD,male,63,5,12,11,66,32,51,73,67,63,80,79,85,89,92,90,88,81,95,90,83,81,78,,,,,,,,,85,89,77,77,80,90,86,90,,,,,,,,,91,90,87,89,78,78,89,84,,,,,,,,,88,89,80,94,78,91,90,81,,,,,,,,,3,0,0,0,0,0,0,0,0,0,0,0,0,0,0,0,0,0,0,0,0
A2HN720GCQ6YW6:3MYYFCXHJ4LDSLN6POJNSQSKRP14GR,male,52,5,12,10,34,32,43,27,40,58,34,38,29,57,42,37,30,54,43,50,50,38,32,,,,,,,,,52,17,22,70,77,85,51,42,,,,,,,,,31,32,40,35,42,39,35,36,,,,,,,,,32,54,37,43,44,29,38,45,,,,,,,,,3,0,0,0,0,0,0,0,0,0,0,0,0,0,0,0,0,0,0,0,0
A23KAJRDVCVGOE:3VSOLARPKCNDVFHUB48UQ4ER9CA93K,male,41,1,13,7,83,98,5,73,43,74,75,43,56,60,90,30,30,46,33,73,45,62,50,,,,,,,,,57,80,78,57,85,66,14,66,,,,,,,,,67,34,22,52,47,28,69,23,,,,,,,,,75,84,48,82,55,72,48,62,,,,,,,,,3,,,,,,,,,,,,,,,,,,,,
A26ST4UX73VPLW:3OCHAWUVGPY9S97ZZQ67NTHBRA9XK6,female,30,1,15,7,70,100,26,37,24,21,16,0,27,0,86,81,83,52,86,100,86,79,47,,,,,,,,,76,72,50,76,80,45,74,46,,,,,,,,,76,75,49,76,74,75,62,48,,,,,,,,,70,41,22,72,63,70,71,42,,,,,,,,,3,,,,,,,,,,,,,,,,,,,,
A1P2RQ166VS5BT:3SNLUL3WO51SVBVMFL7LIMVML3GLU9,female,62,1,0,3,1,48,0,47,72,45,3,2,1,2,2,71,72,70,70,,71,70,,,,N/A,,,,,N/A,,57,56,56,,,53,,N/A,,N/A,,,,N/A,N/A,25,69,1,70,1,47,57,25,,,,,,,,,40,42,82,40,,42,69,42,,,N/A,,,,,,3,,,,,,,,,,,,,,,,,,,,
AYKZ9H4BNW810:3VD82FOHKR24F2HJ6M2DGXDABK1COK,male,31,3,6,2,99,100,0,25,23,51,48,5,80,21,32,84,85,84,84,87,86,84,84,,,,,,,,,87,83,86,84,84,86,87,85,,,,,,,,,84,83,81,86,80,86,83,83,,,,,,,,,86,84,89,83,84,85,83,84,,,,,,,,,3,,,,,,,,,,,,,,,,,,,,
A2LVCS009DMEAT:3TYCR1GOTDX9HAPWL86TZEA1O1PZL3,female,38,2,1,1,100,100,0,20,20,53,11,3,2,0,9,88,67,68,79,65,79,89,80,,,,,,,,,74,87,75,81,62,87,83,76,,,,,,,,,93,91,63,86,52,85,89,71,,,,,,,,,92,96,49,84,39,78,92,87,,,,,,,,,3,,,,,,,,,,,,,,,,,,,,
A12ABRH7TAD6ZJ:36WLNQG780OZT6COY83M01DEO13EBQ,male,49,3,8,1,99,100,3,8,16,11,19,3,37,19,2,49,66,59,92,51,78,49,56,,,,,,,,,99,83,66,82,51,59,96,55,,,,,,,,,64,55,98,81,86,82,64,78,,,,,,,,,54,64,29,66,98,80,90,78,,,,,,,,,3,,,,,,,,,,,,,,,,,,,,
A1TGV7LT6LTIQU:3CFJTT4SXU4O7ZBKHAHXGEPAY0BI72,male,41,3,10,0,100,100,0,49,49,2,0,0,0,0,0,69,,100,,,,98,98,,,N/A,,N/A,N/A,N/A,,73,,98,,,,100,98,,,N/A,,N/A,N/A,N/A,,77,,97,99,,,98,98,,,N/A,,N/A,,N/A,,69,,100,,,,97,100,,,N/A,,N/A,N/A,N/A,,3,,,,,,,,,,,,,,,,,,,,
A153HLAVH5FILS:3K772S5NP9P9KJFAY0DIMCGCIYDHEH,female,34,3,8,0,98,100,0,3,23,24,76,26,73,50,73,96,94,94,92,96,97,96,93,,,,,,,,,100,97,98,98,97,97,99,97,,,,,,,,,94,94,94,97,93,93,95,94,,,,,,,,,94,94,93,94,94,94,93,93,,,,,,,,,3,,,,,,,,,,,,,,,,,,,,
AFIK3VBMMX6G6:3ZSANO2JCGLQG6TM459N888E4YBFSX,male,36,3,2,0,66,100,0,23,26,13,49,12,13,27,25,82,84,69,84,90,81,96,78,,,,,,,,,85,83,73,74,83,83,94,74,,,,,,,,,86,82,72,66,79,83,82,79,,,,,,,,,79,82,63,71,76,87,95,71,,,,,,,,,3,,,,,,,,,,,,,,,,,,,,
A2V27A9GZA1NR2:3E13VNJ1NO9AWDWISU0OF4YXVEBI15,male,39,2,1,0,100,100,0,21,39,24,45,24,17,12,15,18,40,83,31,24,14,50,70,,,,,,,,,95,74,90,89,74,82,76,91,,,,,,,,,78,75,72,62,60,78,78,92,,,,,,,,,15,4,89,29,3,15,72,85,,,,,,,,,3,,,,,,,,,,,,,,,,,,,,
A38QGJJOZANQ4B:3VJ40NV2QJ1L1JJUS8X357DEXUEOT2,male,34,2,11,0,100,100,0,77,50,8,84,39,75,23,34,71,81,22,31,38,55,71,57,,,,,,,,,92,76,84,85,94,80,84,79,,,,,,,,,97,92,49,91,89,90,81,96,,,,,,,,,60,81,10,73,52,40,34,40,,,,,,,,,3,,,,,,,,,,,,,,,,,,,,
A17LRY89BBPCUG:3OXV7EAXLF4QDWFWDX5I6UNPJJ763R,male,31,3,7,0,83,98,1,50,21,48,48,75,21,24,50,36,38,38,37,33,36,39,39,,,,,,,,,87,87,86,85,88,85,85,87,,,,,,,,,84,85,84,86,83,84,84,86,,,,,,,,,41,27,56,41,40,42,56,42,,,,,,,,,3,,,,,,,,,,,,,,,,,,,,
