debug924661:debugTYIFTL,purple_bot_associate_lauren,78
debug924661:debugTYIFTL,condition,11
debug924661:debugTYIFTL,mdmt_purple_FR,purple robot
debug924661:debugTYIFTL,mdmt_yellow_checkbox_6,N/A
debug924661:debugTYIFTL,mdmt_purple_checkbox_4,N/A
debug924661:debugTYIFTL,mdmt_yellow_checkbox_4,N/A
debug924661:debugTYIFTL,mdmt_yellow_checkbox_5,N/A
debug924661:debugTYIFTL,mdmt_purple_checkbox_8,N/A
debug924661:debugTYIFTL,mdmt_yellow_checkbox_3,N/A
debug924661:debugTYIFTL,mdmt_yellow_checkbox_1,N/A
debug924661:debugTYIFTL,final_check_question,3
debug924661:debugTYIFTL,mdmt_purple_checkbox_5,N/A
debug924661:debugTYIFTL,mdmt_purple_checkbox_6,N/A
debug924661:debugTYIFTL,mdmt_purple_checkbox_7,N/A
debug924661:debugTYIFTL,mdmt_purple_checkbox_1,N/A
debug924661:debugTYIFTL,mdmt_yellow_checkbox_8,N/A
debug924661:debugTYIFTL,mdmt_purple_checkbox_3,N/A
debug924661:debugTYIFTL,godspeed_1,72
debug924661:debugTYIFTL,godspeed_2,65
debug924661:debugTYIFTL,godspeed_3,71
debug924661:debugTYIFTL,godspeed_4,72
debug924661:debugTYIFTL,godspeed_5,73
debug924661:debugTYIFTL,mdmt_yellow_FR,yellow robot
debug924661:debugTYIFTL,mdmt_lauren_checkbox_2,N/A
debug924661:debugTYIFTL,mdmt_purple_checkbox_2,N/A
debug924661:debugTYIFTL,mdmt_starter_FR,impressions
debug924661:debugTYIFTL,yellow_bot_associate_sarah,71
debug924661:debugTYIFTL,mdmt_sarah_checkbox_1,N/A
debug924661:debugTYIFTL,mdmt_sarah_checkbox_2,N/A
debug924661:debugTYIFTL,mdmt_sarah_checkbox_3,N/A
debug924661:debugTYIFTL,mdmt_sarah_checkbox_4,N/A
debug924661:debugTYIFTL,mdmt_sarah_checkbox_5,N/A
debug924661:debugTYIFTL,mdmt_sarah_checkbox_6,N/A
debug924661:debugTYIFTL,mdmt_sarah_checkbox_7,N/A
debug924661:debugTYIFTL,mdmt_sarah_checkbox_8,N/A
debug924661:debugTYIFTL,mdmt_lauren_checkbox_1,N/A
debug924661:debugTYIFTL,mdmt_lauren_checkbox_3,N/A
debug924661:debugTYIFTL,mdmt_lauren_FR,lauren roboto
debug924661:debugTYIFTL,mdmt_lauren_checkbox_5,N/A
debug924661:debugTYIFTL,mdmt_lauren_checkbox_4,N/A
debug924661:debugTYIFTL,mdmt_lauren_checkbox_7,N/A
debug924661:debugTYIFTL,mdmt_lauren_checkbox_6,N/A
debug924661:debugTYIFTL,mdmt_lauren_checkbox_8,N/A
debug924661:debugTYIFTL,eerieness_1,63
debug924661:debugTYIFTL,purple_bot_associate_sarah,70
debug924661:debugTYIFTL,eerieness_3,68
debug924661:debugTYIFTL,eerieness_2,74
debug924661:debugTYIFTL,yellow_bot_associate_lauren,72
debug924661:debugTYIFTL,mdmt_yellow_checkbox_7,N/A
debug924661:debugTYIFTL,gender,male
debug924661:debugTYIFTL,age,12
debug924661:debugTYIFTL,experience,6
debug924661:debugTYIFTL,mdmt_sl_FR,sl
debug924661:debugTYIFTL,mdmt_sarah_FR,sarah robor
debug924661:debugTYIFTL,mdmt_yellow_checkbox_2,N/A
debugCE872X:debugQ6G7AA,gender,male
debugCE872X:debugQ6G7AA,age,21
debugCE872X:debugQ6G7AA,condition,2
debugCE872X:debugQ6G7AA,experience,6
debug8F4FMG:debug7PBB0B,gender,female
debug8F4FMG:debug7PBB0B,age,22
debug8F4FMG:debug7PBB0B,condition,3
debug8F4FMG:debug7PBB0B,experience,6
debugI9HJRA:debugW4W5KA,purple_bot_associate_lauren,81
debugI9HJRA:debugW4W5KA,mdmt_yellow_8,78
debugI9HJRA:debugW4W5KA,condition,1
debugI9HJRA:debugW4W5KA,mdmt_purple_FR,p
debugI9HJRA:debugW4W5KA,mdmt_yellow_7,81
debugI9HJRA:debugW4W5KA,experience,3
debugI9HJRA:debugW4W5KA,final_check_question,3
debugI9HJRA:debugW4W5KA,mdmt_yellow_5,78
debugI9HJRA:debugW4W5KA,mdmt_yellow_4,91
debugI9HJRA:debugW4W5KA,yellow_bot_associate_sarah,80
debugI9HJRA:debugW4W5KA,godspeed_1,76
debugI9HJRA:debugW4W5KA,godspeed_2,74
debugI9HJRA:debugW4W5KA,godspeed_3,76
debugI9HJRA:debugW4W5KA,godspeed_4,71
debugI9HJRA:debugW4W5KA,godspeed_5,75
debugI9HJRA:debugW4W5KA,mdmt_yellow_3,79
debugI9HJRA:debugW4W5KA,mdmt_sarah_4,67
debugI9HJRA:debugW4W5KA,mdmt_yellow_FR,y
debugI9HJRA:debugW4W5KA,mdmt_sarah_7,67
debugI9HJRA:debugW4W5KA,mdmt_lauren_8,72
debugI9HJRA:debugW4W5KA,mdmt_starter_FR,impre
debugI9HJRA:debugW4W5KA,mdmt_lauren_7,71
debugI9HJRA:debugW4W5KA,mdmt_purple_7,85
debugI9HJRA:debugW4W5KA,mdmt_purple_6,66
debugI9HJRA:debugW4W5KA,mdmt_purple_1,79
debugI9HJRA:debugW4W5KA,mdmt_lauren_3,71
debugI9HJRA:debugW4W5KA,mdmt_purple_3,76
debugI9HJRA:debugW4W5KA,mdmt_purple_8,89
debugI9HJRA:debugW4W5KA,mdmt_lauren_1,67
debugI9HJRA:debugW4W5KA,eerieness_2,70
debugI9HJRA:debugW4W5KA,mdmt_sarah_8,61
debugI9HJRA:debugW4W5KA,mdmt_lauren_4,53
debugI9HJRA:debugW4W5KA,mdmt_lauren_FR,la
debugI9HJRA:debugW4W5KA,mdmt_purple_4,64
debugI9HJRA:debugW4W5KA,mdmt_sarah_1,67
debugI9HJRA:debugW4W5KA,mdmt_yellow_6,86
debugI9HJRA:debugW4W5KA,mdmt_sarah_3,67
debugI9HJRA:debugW4W5KA,mdmt_sarah_2,67
debugI9HJRA:debugW4W5KA,eerieness_1,74
debugI9HJRA:debugW4W5KA,purple_bot_associate_sarah,91
debugI9HJRA:debugW4W5KA,eerieness_3,78
debugI9HJRA:debugW4W5KA,mdmt_sarah_6,71
debugI9HJRA:debugW4W5KA,mdmt_lauren_5,70
debugI9HJRA:debugW4W5KA,yellow_bot_associate_lauren,83
debugI9HJRA:debugW4W5KA,mdmt_lauren_6,64
debugI9HJRA:debugW4W5KA,mdmt_sarah_5,67
debugI9HJRA:debugW4W5KA,gender,male
debugI9HJRA:debugW4W5KA,age,33
debugI9HJRA:debugW4W5KA,mdmt_yellow_2,93
debugI9HJRA:debugW4W5KA,mdmt_purple_5,83
debugI9HJRA:debugW4W5KA,mdmt_sl_FR,sl
debugI9HJRA:debugW4W5KA,mdmt_sarah_FR,sa
debugI9HJRA:debugW4W5KA,mdmt_yellow_1,89
debugI9HJRA:debugW4W5KA,mdmt_purple_2,81
debugI9HJRA:debugW4W5KA,mdmt_lauren_2,67
debugBXT662:debugKE1XP3,mdmt_tyler_FR,tyler associ
debugBXT662:debugKE1XP3,yellow_bot_associate_tyler,49
debugBXT662:debugKE1XP3,mdmt_purple_FR,purple associ
debugBXT662:debugKE1XP3,final_check_question,3
debugBXT662:debugKE1XP3,mdmt_andrew_8,56
debugBXT662:debugKE1XP3,experience,5
debugBXT662:debugKE1XP3,purple_bot_associate_andrew,51
debugBXT662:debugKE1XP3,mdmt_andrew_4,56
debugBXT662:debugKE1XP3,mdmt_andrew_5,57
debugBXT662:debugKE1XP3,mdmt_andrew_6,57
debugBXT662:debugKE1XP3,mdmt_andrew_7,57
debugBXT662:debugKE1XP3,mdmt_andrew_1,52
debugBXT662:debugKE1XP3,mdmt_andrew_2,52
debugBXT662:debugKE1XP3,mdmt_andrew_3,57
debugBXT662:debugKE1XP3,godspeed_1,70
debugBXT662:debugKE1XP3,godspeed_2,71
debugBXT662:debugKE1XP3,godspeed_3,66
debugBXT662:debugKE1XP3,godspeed_4,64
debugBXT662:debugKE1XP3,godspeed_5,67
debugBXT662:debugKE1XP3,mdmt_at_FR,at ad association
debugBXT662:debugKE1XP3,mdmt_andrew_FR,andrew association
debugBXT662:debugKE1XP3,yellow_bot_associate_andrew,51
debugBXT662:debugKE1XP3,mdmt_purple_8,72
debugBXT662:debugKE1XP3,mdmt_purple_5,81
debugBXT662:debugKE1XP3,mdmt_purple_4,74
debugBXT662:debugKE1XP3,mdmt_purple_7,72
debugBXT662:debugKE1XP3,mdmt_purple_6,70
debugBXT662:debugKE1XP3,mdmt_purple_1,74
debugBXT662:debugKE1XP3,mdmt_purple_3,70
debugBXT662:debugKE1XP3,mdmt_purple_2,80
debugBXT662:debugKE1XP3,mdmt_tyler_7,59
debugBXT662:debugKE1XP3,mdmt_starter_FR,impre
debugBXT662:debugKE1XP3,mdmt_yellow_8,54
debugBXT662:debugKE1XP3,mdmt_yellow_7,50
debugBXT662:debugKE1XP3,mdmt_yellow_6,49
debugBXT662:debugKE1XP3,mdmt_yellow_5,53
debugBXT662:debugKE1XP3,mdmt_yellow_4,49
debugBXT662:debugKE1XP3,mdmt_yellow_3,47
debugBXT662:debugKE1XP3,mdmt_yellow_2,50
debugBXT662:debugKE1XP3,eerieness_3,60
debugBXT662:debugKE1XP3,eerieness_2,57
debugBXT662:debugKE1XP3,mdmt_tyler_6,50
debugBXT662:debugKE1XP3,condition,8
debugBXT662:debugKE1XP3,mdmt_tyler_4,59
debugBXT662:debugKE1XP3,mdmt_tyler_5,64
debugBXT662:debugKE1XP3,eerieness_1,61
debugBXT662:debugKE1XP3,mdmt_tyler_3,56
debugBXT662:debugKE1XP3,mdmt_tyler_1,41
debugBXT662:debugKE1XP3,gender,female
debugBXT662:debugKE1XP3,age,22
debugBXT662:debugKE1XP3,mdmt_tyler_8,64
debugBXT662:debugKE1XP3,mdmt_tyler_2,55
debugBXT662:debugKE1XP3,mdmt_yellow_FR,yellow assci
debugBXT662:debugKE1XP3,purple_bot_associate_tyler,50
debugBXT662:debugKE1XP3,mdmt_yellow_1,51
debugYQNF8D:debug04E0T6,gender,female
debugYQNF8D:debug04E0T6,age,22
debugYQNF8D:debug04E0T6,condition,6
debugYQNF8D:debug04E0T6,experience,5
debug929O1T:debug9VUTGD,purple_bot_associate_lauren,60
debug929O1T:debug9VUTGD,mdmt_yellow_8,55
debug929O1T:debug9VUTGD,condition,5
debug929O1T:debug9VUTGD,mdmt_purple_FR,purple
debug929O1T:debug9VUTGD,mdmt_yellow_7,50
debug929O1T:debug9VUTGD,experience,5
debug929O1T:debug9VUTGD,final_check_question,3
debug929O1T:debug9VUTGD,mdmt_yellow_5,52
debug929O1T:debug9VUTGD,mdmt_yellow_4,58
debug929O1T:debug9VUTGD,yellow_bot_associate_sarah,68
debug929O1T:debug9VUTGD,godspeed_1,66
debug929O1T:debug9VUTGD,godspeed_2,61
debug929O1T:debug9VUTGD,godspeed_3,70
debug929O1T:debug9VUTGD,godspeed_4,68
debug929O1T:debug9VUTGD,godspeed_5,64
debug929O1T:debug9VUTGD,mdmt_yellow_3,53
debug929O1T:debug9VUTGD,mdmt_sarah_4,56
debug929O1T:debug9VUTGD,mdmt_yellow_FR,yellow
debug929O1T:debug9VUTGD,mdmt_sarah_7,57
debug929O1T:debug9VUTGD,mdmt_lauren_8,48
debug929O1T:debug9VUTGD,mdmt_starter_FR,gsgd
debug929O1T:debug9VUTGD,mdmt_lauren_7,56
debug929O1T:debug9VUTGD,mdmt_purple_7,53
debug929O1T:debug9VUTGD,mdmt_purple_6,64
debug929O1T:debug9VUTGD,mdmt_purple_1,63
debug929O1T:debug9VUTGD,mdmt_lauren_3,63
debug929O1T:debug9VUTGD,mdmt_purple_3,61
debug929O1T:debug9VUTGD,mdmt_purple_8,52
debug929O1T:debug9VUTGD,mdmt_lauren_1,62
debug929O1T:debug9VUTGD,eerieness_2,52
debug929O1T:debug9VUTGD,mdmt_sarah_8,55
debug929O1T:debug9VUTGD,mdmt_lauren_4,55
debug929O1T:debug9VUTGD,mdmt_lauren_FR,i of lauren
debug929O1T:debug9VUTGD,mdmt_purple_4,54
debug929O1T:debug9VUTGD,mdmt_sarah_1,55
debug929O1T:debug9VUTGD,mdmt_yellow_6,53
debug929O1T:debug9VUTGD,mdmt_sarah_3,57
debug929O1T:debug9VUTGD,mdmt_sarah_2,55
debug929O1T:debug9VUTGD,eerieness_1,47
debug929O1T:debug9VUTGD,purple_bot_associate_sarah,64
debug929O1T:debug9VUTGD,eerieness_3,55
debug929O1T:debug9VUTGD,mdmt_sarah_6,62
debug929O1T:debug9VUTGD,mdmt_lauren_5,57
debug929O1T:debug9VUTGD,yellow_bot_associate_lauren,66
debug929O1T:debug9VUTGD,mdmt_lauren_6,51
debug929O1T:debug9VUTGD,mdmt_sarah_5,55
debug929O1T:debug9VUTGD,gender,female
debug929O1T:debug9VUTGD,age,22
debug929O1T:debug9VUTGD,mdmt_yellow_2,62
debug929O1T:debug9VUTGD,mdmt_purple_5,66
debug929O1T:debug9VUTGD,mdmt_sl_FR,al dd association
debug929O1T:debug9VUTGD,mdmt_sarah_FR,i of sarah
debug929O1T:debug9VUTGD,mdmt_yellow_1,49
debug929O1T:debug9VUTGD,mdmt_purple_2,62
debug929O1T:debug9VUTGD,mdmt_lauren_2,62
