id,gender,age,experience,condition,purple_bot_associate_bumble,purple_bot_associate_honey,yellow_bot_associate_bumble,yellow_bot_associate_honey,eerieness_1,eerieness_2,eerieness_3,godspeed_1,godspeed_2,godspeed_3,godspeed_4,godspeed_5,mdmt_bumble_1,mdmt_bumble_2,mdmt_bumble_3,mdmt_bumble_4,mdmt_bumble_5,mdmt_bumble_6,mdmt_bumble_7,mdmt_bumble_8,mdmt_bumble_checkbox_1,mdmt_bumble_checkbox_2,mdmt_bumble_checkbox_3,mdmt_bumble_checkbox_4,mdmt_bumble_checkbox_5,mdmt_bumble_checkbox_6,mdmt_bumble_checkbox_7,mdmt_bumble_checkbox_8,mdmt_honey_1,mdmt_honey_2,mdmt_honey_3,mdmt_honey_4,mdmt_honey_5,mdmt_honey_6,mdmt_honey_7,mdmt_honey_8,mdmt_honey_checkbox_1,mdmt_honey_checkbox_2,mdmt_honey_checkbox_3,mdmt_honey_checkbox_4,mdmt_honey_checkbox_5,mdmt_honey_checkbox_6,mdmt_honey_checkbox_7,mdmt_honey_checkbox_8,mdmt_purple_1,mdmt_purple_2,mdmt_purple_3,mdmt_purple_4,mdmt_purple_5,mdmt_purple_6,mdmt_purple_7,mdmt_purple_8,mdmt_purple_checkbox_1,mdmt_purple_checkbox_2,mdmt_purple_checkbox_3,mdmt_purple_checkbox_4,mdmt_purple_checkbox_5,mdmt_purple_checkbox_6,mdmt_purple_checkbox_7,mdmt_purple_checkbox_8,mdmt_yellow_1,mdmt_yellow_2,mdmt_yellow_3,mdmt_yellow_4,mdmt_yellow_5,mdmt_yellow_6,mdmt_yellow_7,mdmt_yellow_8,mdmt_yellow_checkbox_1,mdmt_yellow_checkbox_2,mdmt_yellow_checkbox_3,mdmt_yellow_checkbox_4,mdmt_yellow_checkbox_5,mdmt_yellow_checkbox_6,mdmt_yellow_checkbox_7,mdmt_yellow_checkbox_8,final_check_question
A2X295K4FFKJ8I:31HQ4X3T3TOCGY3IQGCL3LDY07ISLP,female,28,5,0,52,36,56,43,67,49,74,46,73,49,74,51,59,43,63,42,71,69,57,36,,,,,,,,,43,58,63,59,66,49,53,40,,,,,,,,,57,42,59,58,52,58,42,57,,,,,,,,,66,52,38,50,45,38,59,57,,,,,,,,,3
AEABRUWKPKUH0:3U0SRXB7CEJQ3J6QN4SVQ3CRJZCRND,female,25,3,0,,,,,,,,,,,,,,,,,,,,,,,,,,,,,,,,,,,,,,,,,,,,,,,,,,,,,,,,,,,,,,,,,,,,,,,,,,,,,
A3T9QXFQ55NER5:3KGTPGBS6YZMUP9E5FPG3QWDF3PU2T,female,32,4,0,,,,,,,,,,,,,,,,,,,,,,,,,,,,,,,,,,,,,,,,,,,,,,,,,,,,,,,,,,,,,,,,,,,,,,,,,,,,,
A1P2RQ166VS5BT:3SNLUL3WO51SVBVMFL7LIMVML3GLU9,female,62,1,0,3,1,48,0,47,72,45,3,2,1,2,2,71,72,70,70,,71,70,,,,,,N/A,,,N/A,,57,56,56,,,53,,N/A,,,,N/A,N/A,,N/A,25,69,1,70,1,47,57,25,,,,,,,,,40,42,82,40,,42,69,42,,,,,N/A,,,,3
A25D8MUZP7CQEY:3PS7W85Z80GIUWFOQJEL8HIP2VTT9U,male,23,5,0,60,14,32,22,20,22,15,20,4,9,9,16,77,86,83,81,82,80,81,82,,,,,,,,,87,85,87,65,79,82,83,83,,,,,,,,,84,86,85,85,85,85,84,85,,,,,,,,,86,86,85,55,86,87,86,66,,,,,,,,,3
A11XBL6NN3BS7A:37W3JXSD67MPNERQT0BCUIIFFZ8WYQ,female,41,5,0,,,,,,,,,,,,,,,,,,,,,,,,,,,,,,,,,,,,,,,,,,,,,,,,,,,,,,,,,,,,,,,,,,,,,,,,,,,,,
A360P5QC8KUOV4:30ZX6P7VF99DG9YKTGL2WON2YKS2J0,male,28,3,0,,,,,,,,,,,,,,,,,,,,,,,,,,,,,,,,,,,,,,,,,,,,,,,,,,,,,,,,,,,,,,,,,,,,,,,,,,,,,
A1YRCAALX5VWB3:3TXD01ZLD5VWX3O19T84W5TBZEM4UU,female,40,4,0,,,,,,,,,,,,,,,,,,,,,,,,,,,,,,,,,,,,,,,,,,,,,,,,,,,,,,,,,,,,,,,,,,,,,,,,,,,,,
debug5nZb1:debugQ75RH,male,36,3,0,100,0,0,100,16,9,58,49,37,78,42,87,85,83,71,83,73,88,85,78,,,,,,,,,83,86,70,82,70,82,83,85,,,,,,,,,88,89,73,85,73,83,84,89,,,,,,,,,87,86,72,84,74,83,83,85,,,,,,,,,3
A3NH5Q4UK7J22Z:3K772S5NP9P9KJFAY0DIMCGCIYDHEH,male,40,7,1,,,,,,,,,,,,,,,,,,,,,,,,,,,,,,,,,,,,,,,,,,,,,,,,,,,,,,,,,,,,,,,,,,,,,,,,,,,,,
A990YVIY66UNS:3Z2R0DQ0JIS55TCSFFABZ8AATG5E28,female,45,7,1,40,53,43,31,53,47,64,51,18,28,46,55,45,51,66,54,51,72,,51,,,,,,,N/A,,66,,68,,62,48,44,42,,N/A,,N/A,,,,,53,50,60,42,55,53,45,59,,,,,,,,,55,59,,48,45,48,63,45,,,N/A,,,,,,3
A2G9XH5NV4QDCE:33CID5710578WHI301BKVD5M8R63LV,male,27,7,1,,,,,,,,,,,,,,,,,,,,,,,,,,,,,,,,,,,,,,,,,,,,,,,,,,,,,,,,,,,,,,,,,,,,,,,,,,,,,
debugd6d9A:debug7GC93,male,36,3,1,,,,,,,,,,,,,,,,,,,,,,,,,,,,,,,,,,,,,,,,,,,,,,,,,,,,,,,,,,,,,,,,,,,,,,,,,,,,,
A15CQ19I1V6V0J:3OUYGIZWR8C26AY496M8AWGZAODP08,male,28,5,1,77,82,68,84,70,85,57,69,77,57,69,82,61,67,75,81,73,82,58,59,,,,,,,,,83,60,70,74,77,69,75,81,,,,,,,,,72,70,78,64,88,59,80,77,,,,,,,,,66,84,66,49,68,73,56,55,,,,,,,,,3
A3O7X46E3REM7I:34X6J5FLPUCU8S05VRB3S6L5EQ6JQV,male,33,3,1,99,0,1,100,25,49,0,24,1,0,1,22,100,85,98,94,100,86,97,98,,,,,,,,,95,99,96,97,97,98,97,98,,,,,,,,,98,85,100,97,100,98,98,97,,,,,,,,,86,88,98,86,100,87,97,99,,,,,,,,,3
A3ERKH1ZX3VH0Z:3R5F3LQFV3YHNVSTY0MLRVEVIQ0OZI,female,34,3,1,,,,,,,,,,,,,,,,,,,,,,,,,,,,,,,,,,,,,,,,,,,,,,,,,,,,,,,,,,,,,,,,,,,,,,,,,,,,,
A3K0YRCSOMX845:34HJIJKLP6AWAID1EJI9SRVUDLV4VJ,male,56,3,10,67,84,72,83,55,63,75,70,64,82,65,78,71,98,70,67,57,61,71,93,,,,,,,,,66,55,60,69,77,59,79,68,,,,,,,,,87,67,59,79,76,89,57,79,,,,,,,,,77,76,68,84,64,63,87,88,,,,,,,,,3
A2Y7RA3JIQXV6M:34S9DKFK743Z0KIC1ZKPYZ5OMN0YNX,female,29,2,10,62,48,49,65,27,50,77,74,83,49,75,73,71,55,67,67,68,83,80,81,,,,,,,,,62,54,73,58,84,77,57,62,,,,,,,,,65,84,42,60,71,58,81,73,,,,,,,,,71,84,63,80,70,55,71,42,,,,,,,,,3
A3TUTC1ZDXFE87:34S9DKFK743Z0KIC1ZKPYZ5OMN0YNX,male,49,3,10,,,,,,,,,,,,,,,,,,,,,,,,,,,,,,,,,,,,,,,,,,,,,,,,,,,,,,,,,,,,,,,,,,,,,,,,,,,,,
A5ENT0LJGTX2V:3TPZPLC3M1QYN2X1ST4RCUE6D0Y3PI,male,29,3,10,,,,,,,,,,,,,,,,,,,,,,,,,,,,,,,,,,,,,,,,,,,,,,,,,,,,,,,,,,,,,,,,,,,,,,,,,,,,,
A2VN59CZEQ7P0R:3X0H8UUIT22SRSFHUUJNCWUEYDZWSX,male,40,1,10,100,0,0,100,24,20,2,37,12,47,22,73,99,99,99,,,100,100,99,,,,N/A,N/A,,,,99,100,100,,,100,100,100,,,,N/A,N/A,,,,99,99,98,,,99,99,100,,,,N/A,N/A,,,,100,100,100,,,100,100,99,,,,N/A,N/A,,,,3
debugIe924:debugxOzjr,female,57,3,10,1,100,99,1,23,48,24,49,50,50,26,10,97,94,86,92,89,91,81,91,,,,,,,,,94,89,77,93,70,93,76,92,,,,,,,,,88,89,88,92,70,95,89,85,,,,,,,,,72,85,86,94,74,86,83,87,,,,,,,,,3
debugbVug1:debugiVW61,male,48,1,10,49,31,38,65,65,42,64,42,64,60,71,24,70,56,70,76,86,56,43,62,,,,,,,,,47,60,63,74,32,72,78,53,,,,,,,,,50,74,62,95,39,63,69,48,,,,,,,,,50,32,77,48,75,34,64,63,,,,,,,,,3
debugW8zP2:debugYd2K4,male,67,3,11,,,,,,,,,,,,,,,,,,,,,,,,,,,,,,,,,,,,,,,,,,,,,,,,,,,,,,,,,,,,,,,,,,,,,,,,,,,,,
A3CB76BLS1D9KF:3R5F3LQFV3YHNVSTY0MLRVEVIQ0OZI,male,28,5,11,80,86,52,81,76,96,75,52,75,74,49,77,59,67,54,56,67,77,77,64,,,,,,,,,87,69,62,68,89,87,73,67,,,,,,,,,70,76,72,71,57,86,81,83,,,,,,,,,69,86,97,71,72,66,74,97,,,,,,,,,3
A38QGJJOZANQ4B:3VJ40NV2QJ1L1JJUS8X357DEXUEOT2,male,34,2,11,0,100,100,0,77,50,8,84,39,75,23,34,71,81,22,31,38,55,71,57,,,,,,,,,92,76,84,85,94,80,84,79,,,,,,,,,97,92,49,91,89,90,81,96,,,,,,,,,60,81,10,73,52,40,34,40,,,,,,,,,3
A3KF6O09H04SP7:32SCWG5HIIIXKLKJBV2PJXQQNRZP69,male,36,3,11,99,0,0,99,26,48,3,19,3,46,26,4,89,92,83,93,78,90,89,90,,,,,,,,,77,79,85,78,73,79,86,75,,,,,,,,,75,87,81,84,73,91,86,89,,,,,,,,,74,82,88,81,75,86,90,68,,,,,,,,,3
AXXYCRSMYHH4U:32XVDSJFP0B3HH45WDYUCGFJ2EN2M4,female,25,3,11,70,81,74,93,62,60,90,53,86,63,58,51,46,92,85,55,67,77,73,76,,,,,,,,,69,85,66,96,40,67,66,81,,,,,,,,,61,60,72,85,91,92,78,92,,,,,,,,,74,66,42,82,62,77,87,66,,,,,,,,,4
debugUURV5:debughW8sn,female,23,4,11,76,14,82,29,72,54,50,58,64,43,43,54,73,41,73,64,65,60,68,70,,,,,,,,,60,58,80,67,64,75,51,61,,,,,,,,,54,69,54,57,76,55,63,69,,,,,,,,,71,58,61,39,72,69,70,70,,,,,,,,,3
A258ZJM0HU1OR3:3H7Z272LX8LF36NQYZ8R8G8NDMOLPD,male,63,5,12,11,66,32,51,73,67,63,80,79,85,89,92,90,88,81,95,90,83,81,78,,,,,,,,,85,89,77,77,80,90,86,90,,,,,,,,,91,90,87,89,78,78,89,84,,,,,,,,,88,89,80,94,78,91,90,81,,,,,,,,,3
debugI1Ysu:debugSo3Kg,male,28,4,12,75,47,73,46,72,34,78,78,42,54,48,71,71,26,38,64,35,35,69,72,,,,,,,,,68,,83,100,64,48,21,100,,N/A,,,,,,,78,36,37,58,39,84,78,70,,,,,,,,,32,48,76,73,33,75,53,53,,,,,,,,,3
debugvkylj:debugJXNhF,male,55,4,12,84,19,18,82,80,22,19,48,7,55,17,84,81,86,79,82,80,79,80,84,,,,,,,,,86,77,77,82,84,77,84,82,,,,,,,,,84,79,78,77,79,79,78,87,,,,,,,,,77,80,81,77,79,80,78,78,,,,,,,,,3
A3Q442I3GGMLD3:34S9DKFK743Z0KIC1ZKPYZ5OMN0YNX,female,32,2,12,,,,,,,,,,,,,,,,,,,,,,,,,,,,,,,,,,,,,,,,,,,,,,,,,,,,,,,,,,,,,,,,,,,,,,,,,,,,,
A225N5L7DV0NEM:3Z2R0DQ0JIS55TCSFFABZ8AATG5E28,male,24,3,12,,,,,,,,,,,,,,,,,,,,,,,,,,,,,,,,,,,,,,,,,,,,,,,,,,,,,,,,,,,,,,,,,,,,,,,,,,,,,
A2R7YCDDDYIFE:3TMSXRD2X7ESX8GNHB43GV758BZW1M,female,30,4,12,76,47,50,76,25,33,43,11,18,11,23,21,70,56,66,51,55,60,51,44,,,,,,,,,68,68,66,51,64,66,72,47,,,,,,,,,63,58,66,48,55,59,63,46,,,,,,,,,35,74,63,61,61,38,47,52,,,,,,,,,3
A198MSVO1VTAT5:3P4RDNWND6KHRUCMIJ6UJ4UJNJOJIX,female,60,2,12,100,0,0,100,0,48,0,100,0,0,0,50,100,99,100,100,99,100,100,100,,,,,,,,,100,100,100,100,100,100,100,100,,,,,,,,,100,100,100,100,100,100,100,100,,,,,,,,,100,99,99,99,99,100,100,99,,,,,,,,,3
A1CWXJH5R5VVDX:30LB5CDZNDOWKE0AWFKA1UIDKNKZ03,female,30,3,13,,,,,,,,,,,,,,,,,,,,,,,,,,,,,,,,,,,,,,,,,,,,,,,,,,,,,,,,,,,,,,,,,,,,,,,,,,,,,
debughWPOX:debugdDmvE,female,48,1,13,66,10,1,97,48,25,75,23,22,49,48,23,25,25,42,27,26,26,28,27,,,,,,,,,57,56,41,71,56,56,71,56,,,,,,,,,28,28,40,27,41,26,25,28,,,,,,,,,57,57,26,56,70,41,57,57,,,,,,,,,4
A3RLYKLRIXDM6Y:33CID5710578WHI301BKVD5M8R63LV,male,39,7,13,67,47,67,48,64,47,47,37,11,34,54,41,58,45,56,43,45,70,64,54,,,,,,,,,59,39,61,67,44,56,,51,,,,,,,N/A,,55,55,49,41,67,70,42,55,,,,,,,,,54,55,52,56,41,39,59,55,,,,,,,,,3
A27OJ2085CJ90R:31HQ4X3T3TOCGY3IQGCL3LDY07ISLP,male,46,3,13,,,,,,,,,,,,,,,,,,,,,,,,,,,,,,,,,,,,,,,,,,,,,,,,,,,,,,,,,,,,,,,,,,,,,,,,,,,,,
A1ZZ8HZHV5AHZ0:3K772S5NP9P9KJFAY0DIMCGCIYDHEH,male,38,3,13,,,,,,,,,,,,,,,,,,,,,,,,,,,,,,,,,,,,,,,,,,,,,,,,,,,,,,,,,,,,,,,,,,,,,,,,,,,,,
A19R3M2LEYD4GX:3R5F3LQFV3YHNVSTY0MLRVEVIQ0OZI,female,18,5,13,,,,,,,,,,,,,,,,,,,,,,,,,,,,,,,,,,,,,,,,,,,,,,,,,,,,,,,,,,,,,,,,,,,,,,,,,,,,,
AQN3WMCEA96DQ:3VHP9MDGROYA9P4Q7JJNT34WH4OFCJ,male,39,3,13,100,0,0,100,100,76,69,0,0,30,20,0,8,12,12,13,13,14,15,7,,,,,,,,,72,72,69,71,71,69,74,77,,,,,,,,,0,53,9,15,2,12,1,13,,,,,,,,,56,88,41,99,50,91,55,73,,,,,,,,,3
debugiqNUO:debug6pBsl,male,28,3,14,58,30,81,87,34,63,45,59,27,78,54,21,50,26,18,51,72,37,89,71,,,,,,,,,33,3,57,75,56,59,20,6,,,,,,,,,28,57,57,20,24,76,59,2,,,,,,,,,64,62,17,21,20,64,37,19,,,,,,,,,3
A23GORW3C5XQJE:3PB5A5BD0WKAB85PRMHUV2CUH8X7GH,male,35,3,14,76,79,65,80,60,51,72,82,56,76,87,85,75,84,55,68,68,58,77,80,,,,,,,,,58,78,62,63,71,59,83,73,,,,,,,,,57,66,56,77,78,77,67,78,,,,,,,,,60,73,69,77,88,87,75,62,,,,,,,,,1
A2OK9IHN5ROSWV:3RGU30DZTBM3ND2D3Y4MBX104S8JMD,male,39,2,14,,,,,,,,,,,,,,,,,,,,,,,,,,,,,,,,,,,,,,,,,,,,,,,,,,,,,,,,,,,,,,,,,,,,,,,,,,,,,
A25E4J9DTQ1L99:3K772S5NP9P9KJFAY0DIMCGCIYDHEH,female,37,5,14,,,,,,,,,,,,,,,,,,,,,,,,,,,,,,,,,,,,,,,,,,,,,,,,,,,,,,,,,,,,,,,,,,,,,,,,,,,,,
A30Y3H3UJ9QKWV:31UV0MXWNRQ9KVX1TH20IUBE5J3I5M,male,25,3,14,90,9,18,90,74,66,79,12,5,13,3,8,58,56,48,59,56,61,50,54,,,,,,,,,51,49,46,48,50,50,50,50,,,,,,,,,49,64,41,62,60,63,47,49,,,,,,,,,51,57,44,51,51,56,51,50,,,,,,,,,3
debug4zvg3:debug2osOB,female,21,3,14,100,0,0,100,19,77,50,4,23,74,0,4,100,98,0,97,97,98,99,98,,,,,,,,,7,37,15,12,23,26,19,11,,,,,,,,,96,98,1,92,95,98,98,100,,,,,,,,,9,40,1,26,24,27,35,26,,,,,,,,,3
A2LQKVH2J0EV9Q:3YMU66OBIOM74XB14V36MF1OVESHGY,male,29,3,14,100,100,0,100,0,50,33,67,39,53,43,40,89,89,82,83,82,87,82,,,,,,,,,N/A,67,84,80,76,68,75,77,,,,,,,,,N/A,86,94,90,85,87,89,92,,,,,,,,,N/A,70,86,66,66,69,81,84,,,,,,,,,N/A,3
AU0Q98WJMJQQL:3P1L2B7AD23XI6BPJZVCJG3X3HSLOW,male,38,5,15,100,0,0,100,92,98,98,99,47,97,0,98,100,98,99,100,97,97,96,97,,,,,,,,,99,99,97,98,,97,98,99,,,,,N/A,,,,97,96,97,97,,96,96,100,,,,,N/A,,,,98,97,98,97,,98,99,98,,,,,N/A,,,,3
AXRXT6FQLFQBY:3H7Z272LX8LF36NQYZ8R8G8NDMOLPD,male,28,5,15,,,,,,,,,,,,,,,,,,,,,,,,,,,,,,,,,,,,,,,,,,,,,,,,,,,,,,,,,,,,,,,,,,,,,,,,,,,,,
ABQ4JY52NCREZ:3VD82FOHKR24F2HJ6M2DGXDA96SOCT,male,38,3,15,21,82,83,29,70,60,21,14,1,3,4,9,47,48,61,47,49,47,56,48,,,,,,,,,30,29,41,32,30,30,29,32,,,,,,,,,33,32,36,25,26,28,30,33,,,,,,,,,42,46,71,42,41,41,71,72,,,,,,,,,3
A35O3H71CM4LVZ:30ZX6P7VF99DG9YKTGL2WON2YKS2J0,male,39,3,15,45,0,8,47,49,51,48,0,8,14,10,8,39,28,39,38,8,25,39,29,,,,,,,,,40,43,40,29,8,9,44,14,,,,,,,,,44,43,44,44,26,25,45,23,,,,,,,,,8,10,48,43,6,40,37,40,,,,,,,,,3
A2QL4LWWYY8ACQ:3SKRO2GZ725128M6SXL0SKDAL7M1KX,female,25,3,15,,,,,,,,,,,,,,,,,,,,,,,,,,,,,,,,,,,,,,,,,,,,,,,,,,,,,,,,,,,,,,,,,,,,,,,,,,,,,
A32B6P9N6LSXQ9:33CID5710578WHI301BKVD5M8R63LV,male,39,5,15,,,,,,,,,,,,,,,,,,,,,,,,,,,,,,,,,,,,,,,,,,,,,,,,,,,,,,,,,,,,,,,,,,,,,,,,,,,,,
debugifkH4:debugKR7Vv,male,28,4,2,,,,,,,,,,,,,,,,,,,,,,,,,,,,,,,,,,,,,,,,,,,,,,,,,,,,,,,,,,,,,,,,,,,,,,,,,,,,,
AKZD89B2WLSX7:3IX2EGZR7CXUKTF58603XWVAAF7RJ9,female,50,1,2,100,0,0,100,0,0,0,73,2,21,61,49,87,86,98,97,97,90,96,86,,,,,,,,,67,62,58,69,59,68,65,68,,,,,,,,,98,85,98,99,97,86,84,88,,,,,,,,,71,58,56,72,70,57,71,71,,,,,,,,,3
A1N7O7E8HC03D8:3OS4RQUCRATRZKCKTJNSIJYEZJOFBC,male,37,3,2,100,0,0,100,48,23,73,21,0,23,0,75,100,100,100,100,100,100,100,49,,,,,,,,,49,100,,26,49,70,49,,,,N/A,,,,,N/A,100,100,100,71,100,100,100,100,,,,,,,,,39,99,,41,,71,49,,,,N/A,,N/A,,,N/A,3
AQV468FB908WI:3TPZPLC3M1QYN2X1ST4RCUE6D0Y3PI,female,35,2,2,100,0,0,100,100,74,90,74,0,50,24,51,58,70,57,58,56,56,73,70,,,,,,,,,94,87,85,83,99,87,83,85,,,,,,,,,98,98,55,86,83,87,82,86,,,,,,,,,71,56,30,56,61,69,70,71,,,,,,,,,3
debuguitgX:debugzlaxK,male,67,3,2,100,0,0,100,67,80,54,62,22,58,18,29,48,66,79,40,34,85,68,81,,,,,,,,,82,77,55,81,83,56,68,89,,,,,,,,,58,78,82,57,62,47,85,72,,,,,,,,,65,84,67,86,49,81,39,60,,,,,,,,,3
A368GZDFSP6FLO:3RGU30DZTBM3ND2D3Y4MBX104S8JMD,female,31,3,2,46,14,23,70,59,41,71,71,45,66,50,73,57,44,66,36,,41,77,55,,,,,N/A,,,,48,30,49,66,21,47,80,78,,,,,,,,,56,60,32,39,62,69,38,46,,,,,,,,,36,46,26,75,60,39,26,40,,,,,,,,,3
A1WPB0UYYEV52D:33NF62TLXKG8XP2AIMR6WK9WFNDJK8,male,41,4,2,,,,,,,,,,,,,,,,,,,,,,,,,,,,,,,,,,,,,,,,,,,,,,,,,,,,,,,,,,,,,,,,,,,,,,,,,,,,,
debug4eFhX:debugZYZgk,female,29,3,3,,,,,,,,,,,,,,,,,,,,,,,,,,,,,,,,,,,,,,,,,,,,,,,,,,,,,,,,,,,,,,,,,,,,,,,,,,,,,
A20XDCBFKG4TEE:3A9AA95ATX011HK56CSKRRCQRWOP5T,male,40,3,3,100,100,0,100,27,61,45,78,81,85,79,20,79,80,63,75,68,81,81,52,,,,,,,,,74,75,76,60,74,68,79,34,,,,,,,,,64,82,70,64,55,77,57,78,,,,,,,,,76,69,47,100,49,76,74,58,,,,,,,,,3
A12MAISOD03JRP:33CID5710578WHI301BKVD5M8R63LV,female,66,1,3,,,,,,,,,,,,,,,,,,,,,,,,,,,,,,,,,,,,,,,,,,,,,,,,,,,,,,,,,,,,,,,,,,,,,,,,,,,,,
A21X9A778AFCFV:36DSNE9QZ6CRNGNPGEJZ31Q5ZSNJOS,male,28,5,3,86,25,15,81,76,48,49,75,50,48,48,48,41,56,41,41,41,41,41,41,,,,,,,,,52,57,54,42,56,41,41,42,,,,,,,,,41,55,42,41,43,57,41,42,,,,,,,,,57,56,40,41,42,57,57,41,,,,,,,,,3
A11Q8U6QTT8KGF:3QEMNNSB2YD7ZOVYPWGMPH9X4GHD7D,male,40,3,3,87,0,2,90,49,59,42,58,13,64,44,42,41,47,41,40,44,41,52,45,,,,,,,,,59,53,52,50,43,59,50,35,,,,,,,,,56,53,25,50,44,64,60,46,,,,,,,,,76,65,53,68,42,75,57,40,,,,,,,,,3
A1S5WQ5IB8IHJL:3X4MXAO0BH2GQDF4F5JIMMPICBGWR9,male,55,3,4,70,83,87,62,52,81,61,80,77,89,51,88,71,86,88,57,86,71,86,73,,,,,,,,,87,91,70,73,78,74,92,26,,,,,,,,,70,58,85,88,70,78,72,89,,,,,,,,,69,73,59,81,68,80,87,85,,,,,,,,,3
debuggz79J:debugrT6kW,female,29,3,4,,,,,,,,,,,,,,,,,,,,,,,,,,,,,,,,,,,,,,,,,,,,,,,,,,,,,,,,,,,,,,,,,,,,,,,,,,,,,
A2YKTNPYFTACIN:33NF62TLXKG8XP2AIMR6WK9WFNDJK8,male,29,3,4,100,0,0,100,74,48,75,64,84,55,81,66,55,70,51,74,41,56,63,74,,,,,,,,,79,50,42,68,52,46,62,71,,,,,,,,,46,69,46,45,70,72,64,42,,,,,,,,,64,40,45,51,78,69,65,73,,,,,,,,,3
debugAO7yz:debug8dPEA,female,48,1,4,,,,,,,,,,,,,,,,,,,,,,,,,,,,,,,,,,,,,,,,,,,,,,,,,,,,,,,,,,,,,,,,,,,,,,,,,,,,,
A1KS9LITOVPAT8:33CID5710578WHI301BKVD5M8R63LV,male,34,3,4,100,0,0,100,70,75,0,68,22,1,1,86,99,99,1,99,99,99,100,87,,,,,,,,,100,100,0,100,100,100,58,87,,,,,,,,,,,,,,,,,,,,,,,,,99,100,0,100,100,100,99,,,,,,,,,N/A,
A3FR3U01EFKGX2:35L9RVQFCPWQ9FCWO0SNQU2F4J8HUT,male,38,3,4,91,75,75,93,88,72,58,72,54,91,71,82,71,89,91,58,74,73,83,95,,,,,,,,,77,58,78,87,88,74,60,92,,,,,,,,,90,65,88,87,72,76,78,91,,,,,,,,,87,94,83,69,81,80,58,67,,,,,,,,,3
A73JIU9I4ULQT:3U0SRXB7CEJQ3J6QN4SVQ3CRJZCRND,female,50,3,5,,,,,,,,,,,,,,,,,,,,,,,,,,,,,,,,,,,,,,,,,,,,,,,,,,,,,,,,,,,,,,,,,,,,,,,,,,,,,
A3N501UIQ965BA:3O6CYIULEEF8657LJZENRXC2JAKWUD,male,24,3,5,34,55,29,71,37,64,41,29,58,39,77,42,63,68,36,43,31,30,56,68,,,,,,,,,68,34,68,69,35,67,41,44,,,,,,,,,50,32,60,64,39,68,39,61,,,,,,,,,68,42,70,54,76,48,79,35,,,,,,,,,3
AGN355IGHKAMJ:37W3JXSD67MPNERQT0BCUIIFFZ8WYQ,male,57,3,5,,,,,,,,,,,,,,,,,,,,,,,,,,,,,,,,,,,,,,,,,,,,,,,,,,,,,,,,,,,,,,,,,,,,,,,,,,,,,
A3JKU9B84G3XIY:3PS7W85Z80GIUWFOQJEL8HIP2VTT9U,female,50,4,5,,,,,,,,,,,,,,,,,,,,,,,,,,,,,,,,,,,,,,,,,,,,,,,,,,,,,,,,,,,,,,,,,,,,,,,,,,,,,
debugS85Dg:debugK8p6S,male,28,3,5,99,0,2,97,20,45,25,22,23,23,22,49,22,23,24,23,24,21,22,22,,,,,,,,,65,71,67,66,66,67,69,68,,,,,,,,,20,22,21,21,20,22,21,21,,,,,,,,,67,72,66,70,67,68,66,67,,,,,,,,,3
A2RS9H7YA510V4:30BXRYBRP5B31J11J07O8INCPZJHWS,female,29,5,5,22,40,42,34,25,14,13,89,61,63,86,85,85,89,35,79,92,91,60,80,,,,,,,,,83,94,54,91,78,43,79,89,,,,,,,,,42,87,56,68,77,94,80,80,,,,,,,,,48,88,90,89,73,70,81,73,,,,,,,,,3
A1FKUZN5M2FSOP:37W3JXSD67MPNERQT0BCUIIFFZ8WYQ,male,55,3,5,92,0,0,93,48,48,56,47,19,64,40,48,52,61,56,64,66,62,59,54,,,,,,,,,74,66,53,66,77,71,62,54,,,,,,,,,52,59,70,77,56,73,64,54,,,,,,,,,57,69,80,69,50,62,53,64,,,,,,,,,3
A2OCOPGJ1X7FR4:3K772S5NP9P9KJFAY0DIMCGCIYDHEH,male,45,1,5,,,,,,,,,,,,,,,,,,,,,,,,,,,,,,,,,,,,,,,,,,,,,,,,,,,,,,,,,,,,,,,,,,,,,,,,,,,,,
AT6YLXC9CCWAA:30BXRYBRP5B31J11J07O8INCPZJHWS,male,31,1,5,,,,,,,,,,,,,,,,,,,,,,,,,,,,,,,,,,,,,,,,,,,,,,,,,,,,,,,,,,,,,,,,,,,,,,,,,,,,,
A1D9ZWU1M46SAF:3TPZPLC3M1QYN2X1ST4RCUE6D0XP33,male,37,2,6,68,31,15,84,73,72,26,24,1,5,0,19,46,57,61,60,55,59,55,55,,,,,,,,,33,38,31,30,37,32,38,26,,,,,,,,,29,61,49,46,53,42,51,48,,,,,,,,,52,39,30,41,30,45,31,27,,,,,,,,,3
AG9LMLEPXP2YC:3M1CVSFP61JJ7ZX11LYQZ7IMO4SQA4,male,26,3,6,68,66,50,49,43,47,70,39,18,71,20,60,58,60,60,61,38,27,53,52,,,,,,,,,55,41,54,47,59,47,43,41,,,,,,,,,64,64,64,57,40,46,50,58,,,,,,,,,43,65,49,72,45,58,51,61,,,,,,,,,3
A1JBC4U3JH6MGN:3IX2EGZR7CXUKTF58603XWVAAC8JRW,male,33,3,6,,,,,,,,,,,,,,,,,,,,,,,,,,,,,,,,,,,,,,,,,,,,,,,,,,,,,,,,,,,,,,,,,,,,,,,,,,,,,
A3VIQQ77NNPL3M:3SKRO2GZ725128M6SXL0SKDAL7M1KX,female,43,3,6,,,,,,,,,,,,,,,,,,,,,,,,,,,,,,,,,,,,,,,,,,,,,,,,,,,,,,,,,,,,,,,,,,,,,,,,,,,,,
debugsaaqU:debugUjfS3,male,26,1,6,100,0,83,0,49,21,21,5,3,12,2,88,86,85,86,87,86,86,85,86,,,,,,,,,88,84,86,86,86,85,86,85,,,,,,,,,86,84,98,85,83,84,85,91,,,,,,,,,74,84,84,74,73,84,77,77,,,,,,,,,3
debuggl5rF:debugxP7Ys,male,27,4,6,,,,,,,,,,,,,,,,,,,,,,,,,,,,,,,,,,,,,,,,,,,,,,,,,,,,,,,,,,,,,,,,,,,,,,,,,,,,,
A3UX8GOK5KAJ8Z:3UXUOQ9OKFB91HSM5MPKZG1RJEXA7N,female,35,7,6,,,,,,,,,,,,,,,,,,,,,,,,,,,,,,,,,,,,,,,,,,,,,,,,,,,,,,,,,,,,,,,,,,,,,,,,,,,,,
A1VGQQPI02FE31:3KGTPGBS6YZMUP9E5FPG3QWDF3PU2T,male,40,5,7,45,70,45,67,54,37,57,42,61,40,59,47,52,67,38,29,42,59,61,40,,,,,,,,,38,55,53,54,35,64,60,27,,,,,,,,,70,55,46,36,33,29,54,55,,,,,,,,,32,42,38,57,59,44,64,55,,,,,,,,,3
A30HUZHJBOX1LK:3ZY8KE4ISKH3ZN0ZCGPMVUWZ9HLVQ8,male,52,3,7,100,0,0,100,17,47,1,21,16,21,24,72,25,21,27,12,28,12,39,25,,,,,,,,,75,58,65,57,70,55,55,51,,,,,,,,,27,13,44,28,14,26,42,57,,,,,,,,,46,63,72,47,40,44,75,41,,,,,,,,,3
A3A1PMZDFJD218:3S0TNUHWKUWBZ20HZ18S3H5SF0ND80,male,30,2,7,,,,,,,,,,,,,,,,,,,,,,,,,,,,,,,,,,,,,,,,,,,,,,,,,,,,,,,,,,,,,,,,,,,,,,,,,,,,,
debugFYcMW:debug5d49r,female,29,3,7,74,64,49,50,36,35,65,65,58,69,64,62,43,57,55,51,0,38,39,34,,,,,,,,,59,56,73,71,0,69,68,36,,,,,,,,,71,62,63,69,62,69,71,51,,,,,,,,,54,72,61,77,58,52,69,75,,,,,,,,,3
A2E0LU8V4EUX5C:3YW4XOSQKRZF54RIMBP2Y7M8NXBU1C,male,28,3,7,,,,,,,,,,,,,,,,,,,,,,,,,,,,,,,,,,,,,,,,,,,,,,,,,,,,,,,,,,,,,,,,,,,,,,,,,,,,,
A1NURZ9X6KMIRM:3K772S5NP9P9KJFAY0DIMCGCIYDHEH,male,55,3,7,,,,,,,,,,,,,,,,,,,,,,,,,,,,,,,,,,,,,,,,,,,,,,,,,,,,,,,,,,,,,,,,,,,,,,,,,,,,,
A28D6AWNCMLKFB:3RU7GD8VPP727JIGI85SK2MI5EFSPD,female,59,3,7,100,0,0,100,44,60,49,69,6,63,39,43,85,73,82,75,72,83,83,55,,,,,,,,,88,74,77,84,81,84,71,79,,,,,,,,,85,74,72,86,79,73,81,73,,,,,,,,,79,83,73,85,67,78,70,85,,,,,,,,,3
AN1IW5XWSPABH:37W3JXSD67MPNERQT0BCUIIFFZ8WYQ,male,62,1,8,,,,,,,,,,,,,,,,,,,,,,,,,,,,,,,,,,,,,,,,,,,,,,,,,,,,,,,,,,,,,,,,,,,,,,,,,,,,,
A153HLAVH5FILS:3K772S5NP9P9KJFAY0DIMCGCIYDHEH,female,34,3,8,0,98,100,0,3,23,24,76,26,73,50,73,96,94,94,92,96,97,96,93,,,,,,,,,100,97,98,98,97,97,99,97,,,,,,,,,94,94,94,97,93,93,95,94,,,,,,,,,94,94,93,94,94,94,93,93,,,,,,,,,3
A30XO2K1DPXDI7:3PS7W85Z80GIUWFOQJEL8HIP2VTT9U,male,28,1,8,,,,,,,,,,,,,,,,,,,,,,,,,,,,,,,,,,,,,,,,,,,,,,,,,,,,,,,,,,,,,,,,,,,,,,,,,,,,,
A2NG2CCBMVEBIA:3UXUOQ9OKFB91HSM5MPKZG1RJEXA7N,male,24,2,8,,,,,,,,,,,,,,,,,,,,,,,,,,,,,,,,,,,,,,,,,,,,,,,,,,,,,,,,,,,,,,,,,,,,,,,,,,,,,
A1A90CECJATQ0Q:3IX2EGZR7CXUKTF58603XWVAAC8JRW,male,54,6,8,,,,,,,,,,,,,,,,,,,,,,,,,,,,,,,,,,,,,,,,,,,,,,,,,,,,,,,,,,,,,,,,,,,,,,,,,,,,,
AQ2BIQQ8MP0Y9:3R5F3LQFV3YHNVSTY0MLRVEVIQ0OZI,female,44,1,8,,,,,,,,,,,,,,,,,,,,,,,,,,,,,,,,,,,,,,,,,,,,,,,,,,,,,,,,,,,,,,,,,,,,,,,,,,,,,
A28QZ8YDI84V0R:3DIP6YHAPD6GR8EHVWJC9ZNDFDA8EC,female,30,3,8,96,10,97,56,81,59,48,89,70,59,10,9,81,73,68,84,88,85,74,81,,,,,,,,,89,72,75,82,83,87,89,67,,,,,,,,,80,75,78,88,66,90,90,79,,,,,,,,,63,69,83,78,86,75,87,75,,,,,,,,,3
debugZQMqU:debugqNYZ5,male,48,1,8,59,88,51,43,63,96,60,56,71,50,70,79,70,70,67,50,74,43,53,28,,,,,,,,,63,80,52,34,43,72,69,49,,,,,,,,,56,41,72,75,43,65,71,56,,,,,,,,,84,54,62,82,66,38,59,58,,,,,,,,,3
debugIIvwr:debughUcPL,male,28,5,9,75,52,53,73,63,34,63,76,38,86,57,60,48,45,21,74,83,23,68,67,,,,,,,,,46,41,83,74,69,34,47,63,,,,,,,,,42,46,74,75,24,57,84,63,,,,,,,,,76,52,49,73,46,68,72,38,,,,,,,,,3
AKVDK30EEV08C:33LKR6A5KFY05RCTM6ZSTB064J51TT,female,62,1,9,100,0,0,100,24,49,0,0,0,0,0,64,54,61,30,59,0,58,29,0,,,,,,,,,24,40,1,36,0,40,28,0,,,,,,,,,49,62,0,58,0,64,32,0,,,,,,,,,38,44,0,40,0,27,42,0,,,,,,,,,3
A5DTG37NL4GAG:3DEL4X4EL7Z4CEWG357YW1WMO01YX6,female,53,6,9,93,91,78,90,81,91,68,75,62,57,62,67,72,49,82,52,77,82,54,56,,,,,,,,,79,57,54,79,57,85,49,70,,,,,,,,,64,82,91,74,70,61,68,83,,,,,,,,,69,60,40,74,47,54,78,78,,,,,,,,,3
ASXNA04AP6W4U:323Q6SJS8JU1QXF6TBXO4U1CUZSHFZ,female,37,4,9,69,84,61,84,72,53,86,61,81,72,56,96,69,55,46,81,64,81,64,32,,,,,,,,,73,85,53,69,69,84,58,85,,,,,,,,,77,85,84,62,45,85,59,67,,,,,,,,,81,60,52,85,53,71,71,52,,,,,,,,,3
A1WMCP20AWR9A1:3TS1AR6UQRS4X89UG2BCDHCIGTX7FI,female,34,5,9,100,99,100,100,73,37,73,100,100,100,0,99,78,88,85,87,,77,83,80,,,,,N/A,,,,97,76,74,89,63,61,82,80,,,,,,,,,97,92,94,94,71,100,98,79,,,,,,,,,96,97,96,100,99,99,98,97,,,,,,,,,3
